%YAML 1.1
%TAG !u! tag:unity3d.com,2011:
--- !u!29 &1
OcclusionCullingSettings:
  m_ObjectHideFlags: 0
  serializedVersion: 2
  m_OcclusionBakeSettings:
    smallestOccluder: 5
    smallestHole: 0.25
    backfaceThreshold: 100
  m_SceneGUID: 00000000000000000000000000000000
  m_OcclusionCullingData: {fileID: 0}
--- !u!104 &2
RenderSettings:
  m_ObjectHideFlags: 0
  serializedVersion: 9
  m_Fog: 1
  m_FogColor: {r: 0.7830189, g: 0.21052866, b: 0.5883721, a: 1}
  m_FogMode: 1
  m_FogDensity: 0.04
  m_LinearFogStart: -10
  m_LinearFogEnd: 100
  m_AmbientSkyColor: {r: 0.26099145, g: 0.3909755, b: 0.6509434, a: 1}
  m_AmbientEquatorColor: {r: 0.114, g: 0.125, b: 0.133, a: 1}
  m_AmbientGroundColor: {r: 0.047, g: 0.043, b: 0.035, a: 1}
  m_AmbientIntensity: 1
  m_AmbientMode: 0
  m_SubtractiveShadowColor: {r: 0.42, g: 0.478, b: 0.627, a: 1}
  m_SkyboxMaterial: {fileID: 2100000, guid: cc421da483ed06c49933077a621bff25, type: 2}
  m_HaloStrength: 0.5
  m_FlareStrength: 1
  m_FlareFadeSpeed: 3
  m_HaloTexture: {fileID: 0}
  m_SpotCookie: {fileID: 10001, guid: 0000000000000000e000000000000000, type: 0}
  m_DefaultReflectionMode: 0
  m_DefaultReflectionResolution: 128
  m_ReflectionBounces: 1
  m_ReflectionIntensity: 1
  m_CustomReflection: {fileID: 0}
  m_Sun: {fileID: 0}
  m_IndirectSpecularColor: {r: 0.16462857, g: 0.03602806, b: 0.16421363, a: 1}
  m_UseRadianceAmbientProbe: 0
--- !u!157 &3
LightmapSettings:
  m_ObjectHideFlags: 0
  serializedVersion: 11
  m_GIWorkflowMode: 0
  m_GISettings:
    serializedVersion: 2
    m_BounceScale: 1
    m_IndirectOutputScale: 1
    m_AlbedoBoost: 1
    m_EnvironmentLightingMode: 0
    m_EnableBakedLightmaps: 0
    m_EnableRealtimeLightmaps: 0
  m_LightmapEditorSettings:
    serializedVersion: 12
    m_Resolution: 2
    m_BakeResolution: 40
    m_AtlasSize: 1024
    m_AO: 0
    m_AOMaxDistance: 1
    m_CompAOExponent: 1
    m_CompAOExponentDirect: 0
    m_ExtractAmbientOcclusion: 0
    m_Padding: 2
    m_LightmapParameters: {fileID: 0}
    m_LightmapsBakeMode: 1
    m_TextureCompression: 1
    m_FinalGather: 0
    m_FinalGatherFiltering: 1
    m_FinalGatherRayCount: 256
    m_ReflectionCompression: 2
    m_MixedBakeMode: 0
    m_BakeBackend: 0
    m_PVRSampling: 1
    m_PVRDirectSampleCount: 32
    m_PVRSampleCount: 500
    m_PVRBounces: 2
    m_PVREnvironmentSampleCount: 500
    m_PVREnvironmentReferencePointCount: 2048
    m_PVRFilteringMode: 2
    m_PVRDenoiserTypeDirect: 0
    m_PVRDenoiserTypeIndirect: 0
    m_PVRDenoiserTypeAO: 0
    m_PVRFilterTypeDirect: 0
    m_PVRFilterTypeIndirect: 0
    m_PVRFilterTypeAO: 0
    m_PVREnvironmentMIS: 0
    m_PVRCulling: 1
    m_PVRFilteringGaussRadiusDirect: 1
    m_PVRFilteringGaussRadiusIndirect: 5
    m_PVRFilteringGaussRadiusAO: 2
    m_PVRFilteringAtrousPositionSigmaDirect: 0.5
    m_PVRFilteringAtrousPositionSigmaIndirect: 2
    m_PVRFilteringAtrousPositionSigmaAO: 1
    m_ExportTrainingData: 0
    m_TrainingDataDestination: TrainingData
    m_LightProbeSampleCountMultiplier: 4
  m_LightingDataAsset: {fileID: 0}
  m_UseShadowmask: 0
--- !u!196 &4
NavMeshSettings:
  serializedVersion: 2
  m_ObjectHideFlags: 0
  m_BuildSettings:
    serializedVersion: 2
    agentTypeID: 0
    agentRadius: 0.5
    agentHeight: 2
    agentSlope: 45
    agentClimb: 0.4
    ledgeDropHeight: 0
    maxJumpAcrossDistance: 0
    minRegionArea: 2
    manualCellSize: 0
    cellSize: 0.16666667
    manualTileSize: 0
    tileSize: 256
    accuratePlacement: 0
    debug:
      m_Flags: 0
  m_NavMeshData: {fileID: 0}
--- !u!1001 &4114578
PrefabInstance:
  m_ObjectHideFlags: 0
  serializedVersion: 2
  m_Modification:
    m_TransformParent: {fileID: 190659020}
    m_Modifications:
    - target: {fileID: 1927372005322154, guid: 39de80c7e7a1a2942820576875608e5d, type: 3}
      propertyPath: m_Name
      value: LowPoly - Rock A (1)
      objectReference: {fileID: 0}
    - target: {fileID: 1927372005322154, guid: 39de80c7e7a1a2942820576875608e5d, type: 3}
      propertyPath: m_StaticEditorFlags
      value: 4294967295
      objectReference: {fileID: 0}
    - target: {fileID: 4838067341564878, guid: 39de80c7e7a1a2942820576875608e5d, type: 3}
      propertyPath: m_LocalPosition.x
      value: -2.2707756
      objectReference: {fileID: 0}
    - target: {fileID: 4838067341564878, guid: 39de80c7e7a1a2942820576875608e5d, type: 3}
      propertyPath: m_LocalPosition.y
      value: 2.882077
      objectReference: {fileID: 0}
    - target: {fileID: 4838067341564878, guid: 39de80c7e7a1a2942820576875608e5d, type: 3}
      propertyPath: m_LocalPosition.z
      value: -4.190982
      objectReference: {fileID: 0}
    - target: {fileID: 4838067341564878, guid: 39de80c7e7a1a2942820576875608e5d, type: 3}
      propertyPath: m_LocalRotation.x
      value: -0.7071068
      objectReference: {fileID: 0}
    - target: {fileID: 4838067341564878, guid: 39de80c7e7a1a2942820576875608e5d, type: 3}
      propertyPath: m_LocalRotation.y
      value: -0
      objectReference: {fileID: 0}
    - target: {fileID: 4838067341564878, guid: 39de80c7e7a1a2942820576875608e5d, type: 3}
      propertyPath: m_LocalRotation.z
      value: -0
      objectReference: {fileID: 0}
    - target: {fileID: 4838067341564878, guid: 39de80c7e7a1a2942820576875608e5d, type: 3}
      propertyPath: m_LocalRotation.w
      value: 0.7071068
      objectReference: {fileID: 0}
    - target: {fileID: 4838067341564878, guid: 39de80c7e7a1a2942820576875608e5d, type: 3}
      propertyPath: m_RootOrder
      value: 10
      objectReference: {fileID: 0}
    - target: {fileID: 4838067341564878, guid: 39de80c7e7a1a2942820576875608e5d, type: 3}
      propertyPath: m_LocalScale.y
      value: 1
      objectReference: {fileID: 0}
    - target: {fileID: 4838067341564878, guid: 39de80c7e7a1a2942820576875608e5d, type: 3}
      propertyPath: m_LocalScale.z
      value: 1
      objectReference: {fileID: 0}
    m_RemovedComponents: []
  m_SourcePrefab: {fileID: 100100000, guid: 39de80c7e7a1a2942820576875608e5d, type: 3}
--- !u!4 &4114579 stripped
Transform:
  m_CorrespondingSourceObject: {fileID: 4838067341564878, guid: 39de80c7e7a1a2942820576875608e5d,
    type: 3}
  m_PrefabInstance: {fileID: 4114578}
  m_PrefabAsset: {fileID: 0}
--- !u!1001 &36479349
PrefabInstance:
  m_ObjectHideFlags: 0
  serializedVersion: 2
  m_Modification:
    m_TransformParent: {fileID: 190659020}
    m_Modifications:
    - target: {fileID: 1069289201138886, guid: 6b444276162548b4e9107350b71e775a, type: 3}
      propertyPath: m_Name
      value: LowPoly - FirTree A (5)
      objectReference: {fileID: 0}
    - target: {fileID: 1069289201138886, guid: 6b444276162548b4e9107350b71e775a, type: 3}
      propertyPath: m_StaticEditorFlags
      value: 4294967295
      objectReference: {fileID: 0}
    - target: {fileID: 4775219554002278, guid: 6b444276162548b4e9107350b71e775a, type: 3}
      propertyPath: m_LocalPosition.x
      value: -7.15
      objectReference: {fileID: 0}
    - target: {fileID: 4775219554002278, guid: 6b444276162548b4e9107350b71e775a, type: 3}
      propertyPath: m_LocalPosition.y
      value: 2.62
      objectReference: {fileID: 0}
    - target: {fileID: 4775219554002278, guid: 6b444276162548b4e9107350b71e775a, type: 3}
      propertyPath: m_LocalPosition.z
      value: 16.37
      objectReference: {fileID: 0}
    - target: {fileID: 4775219554002278, guid: 6b444276162548b4e9107350b71e775a, type: 3}
      propertyPath: m_LocalRotation.x
      value: -0.70414966
      objectReference: {fileID: 0}
    - target: {fileID: 4775219554002278, guid: 6b444276162548b4e9107350b71e775a, type: 3}
      propertyPath: m_LocalRotation.y
      value: 0.06460169
      objectReference: {fileID: 0}
    - target: {fileID: 4775219554002278, guid: 6b444276162548b4e9107350b71e775a, type: 3}
      propertyPath: m_LocalRotation.z
      value: 0.064601675
      objectReference: {fileID: 0}
    - target: {fileID: 4775219554002278, guid: 6b444276162548b4e9107350b71e775a, type: 3}
      propertyPath: m_LocalRotation.w
      value: 0.70414954
      objectReference: {fileID: 0}
    - target: {fileID: 4775219554002278, guid: 6b444276162548b4e9107350b71e775a, type: 3}
      propertyPath: m_RootOrder
      value: 12
      objectReference: {fileID: 0}
    - target: {fileID: 4775219554002278, guid: 6b444276162548b4e9107350b71e775a, type: 3}
      propertyPath: m_LocalEulerAnglesHint.x
      value: -90.00001
      objectReference: {fileID: 0}
    - target: {fileID: 4775219554002278, guid: 6b444276162548b4e9107350b71e775a, type: 3}
      propertyPath: m_LocalEulerAnglesHint.z
      value: 10.484
      objectReference: {fileID: 0}
    - target: {fileID: 4775219554002278, guid: 6b444276162548b4e9107350b71e775a, type: 3}
      propertyPath: m_LocalScale.x
      value: 0.94271064
      objectReference: {fileID: 0}
    - target: {fileID: 4775219554002278, guid: 6b444276162548b4e9107350b71e775a, type: 3}
      propertyPath: m_LocalScale.y
      value: 0.9427107
      objectReference: {fileID: 0}
    - target: {fileID: 4775219554002278, guid: 6b444276162548b4e9107350b71e775a, type: 3}
      propertyPath: m_LocalScale.z
      value: 0.9427108
      objectReference: {fileID: 0}
    m_RemovedComponents: []
  m_SourcePrefab: {fileID: 100100000, guid: 6b444276162548b4e9107350b71e775a, type: 3}
--- !u!4 &36479350 stripped
Transform:
  m_CorrespondingSourceObject: {fileID: 4775219554002278, guid: 6b444276162548b4e9107350b71e775a,
    type: 3}
  m_PrefabInstance: {fileID: 36479349}
  m_PrefabAsset: {fileID: 0}
--- !u!1001 &45879393
PrefabInstance:
  m_ObjectHideFlags: 0
  serializedVersion: 2
  m_Modification:
    m_TransformParent: {fileID: 190659020}
    m_Modifications:
    - target: {fileID: 1435467742513656, guid: 9b6eba5dea9e77a4abd8f45df1ffffb6, type: 3}
      propertyPath: m_Name
      value: LowPoly - Grass A (1)
      objectReference: {fileID: 0}
    - target: {fileID: 4945391837379990, guid: 9b6eba5dea9e77a4abd8f45df1ffffb6, type: 3}
      propertyPath: m_LocalPosition.x
      value: -0.03286171
      objectReference: {fileID: 0}
    - target: {fileID: 4945391837379990, guid: 9b6eba5dea9e77a4abd8f45df1ffffb6, type: 3}
      propertyPath: m_LocalPosition.y
      value: 2.9953594
      objectReference: {fileID: 0}
    - target: {fileID: 4945391837379990, guid: 9b6eba5dea9e77a4abd8f45df1ffffb6, type: 3}
      propertyPath: m_LocalPosition.z
      value: 1.4895756
      objectReference: {fileID: 0}
    - target: {fileID: 4945391837379990, guid: 9b6eba5dea9e77a4abd8f45df1ffffb6, type: 3}
      propertyPath: m_LocalRotation.x
      value: -0.7071068
      objectReference: {fileID: 0}
    - target: {fileID: 4945391837379990, guid: 9b6eba5dea9e77a4abd8f45df1ffffb6, type: 3}
      propertyPath: m_LocalRotation.y
      value: -0
      objectReference: {fileID: 0}
    - target: {fileID: 4945391837379990, guid: 9b6eba5dea9e77a4abd8f45df1ffffb6, type: 3}
      propertyPath: m_LocalRotation.z
      value: -0
      objectReference: {fileID: 0}
    - target: {fileID: 4945391837379990, guid: 9b6eba5dea9e77a4abd8f45df1ffffb6, type: 3}
      propertyPath: m_LocalRotation.w
      value: 0.7071068
      objectReference: {fileID: 0}
    - target: {fileID: 4945391837379990, guid: 9b6eba5dea9e77a4abd8f45df1ffffb6, type: 3}
      propertyPath: m_RootOrder
      value: 6
      objectReference: {fileID: 0}
    - target: {fileID: 4945391837379990, guid: 9b6eba5dea9e77a4abd8f45df1ffffb6, type: 3}
      propertyPath: m_LocalScale.y
      value: 1.500001
      objectReference: {fileID: 0}
    - target: {fileID: 4945391837379990, guid: 9b6eba5dea9e77a4abd8f45df1ffffb6, type: 3}
      propertyPath: m_LocalScale.z
      value: 1.500001
      objectReference: {fileID: 0}
    m_RemovedComponents: []
  m_SourcePrefab: {fileID: 100100000, guid: 9b6eba5dea9e77a4abd8f45df1ffffb6, type: 3}
--- !u!4 &45879394 stripped
Transform:
  m_CorrespondingSourceObject: {fileID: 4945391837379990, guid: 9b6eba5dea9e77a4abd8f45df1ffffb6,
    type: 3}
  m_PrefabInstance: {fileID: 45879393}
  m_PrefabAsset: {fileID: 0}
--- !u!1001 &131336117
PrefabInstance:
  m_ObjectHideFlags: 0
  serializedVersion: 2
  m_Modification:
    m_TransformParent: {fileID: 190659020}
    m_Modifications:
    - target: {fileID: 1069289201138886, guid: 6b444276162548b4e9107350b71e775a, type: 3}
      propertyPath: m_Name
      value: LowPoly - FirTree A (3)
      objectReference: {fileID: 0}
    - target: {fileID: 1069289201138886, guid: 6b444276162548b4e9107350b71e775a, type: 3}
      propertyPath: m_StaticEditorFlags
      value: 4294967295
      objectReference: {fileID: 0}
    - target: {fileID: 4775219554002278, guid: 6b444276162548b4e9107350b71e775a, type: 3}
      propertyPath: m_LocalPosition.x
      value: -0.17991543
      objectReference: {fileID: 0}
    - target: {fileID: 4775219554002278, guid: 6b444276162548b4e9107350b71e775a, type: 3}
      propertyPath: m_LocalPosition.y
      value: 3.2819602
      objectReference: {fileID: 0}
    - target: {fileID: 4775219554002278, guid: 6b444276162548b4e9107350b71e775a, type: 3}
      propertyPath: m_LocalPosition.z
      value: -7.2957726
      objectReference: {fileID: 0}
    - target: {fileID: 4775219554002278, guid: 6b444276162548b4e9107350b71e775a, type: 3}
      propertyPath: m_LocalRotation.x
      value: -0.7071068
      objectReference: {fileID: 0}
    - target: {fileID: 4775219554002278, guid: 6b444276162548b4e9107350b71e775a, type: 3}
      propertyPath: m_LocalRotation.y
      value: -0
      objectReference: {fileID: 0}
    - target: {fileID: 4775219554002278, guid: 6b444276162548b4e9107350b71e775a, type: 3}
      propertyPath: m_LocalRotation.z
      value: -0
      objectReference: {fileID: 0}
    - target: {fileID: 4775219554002278, guid: 6b444276162548b4e9107350b71e775a, type: 3}
      propertyPath: m_LocalRotation.w
      value: 0.7071068
      objectReference: {fileID: 0}
    - target: {fileID: 4775219554002278, guid: 6b444276162548b4e9107350b71e775a, type: 3}
      propertyPath: m_RootOrder
      value: 14
      objectReference: {fileID: 0}
    - target: {fileID: 4775219554002278, guid: 6b444276162548b4e9107350b71e775a, type: 3}
      propertyPath: m_LocalScale.x
      value: 0.71628875
      objectReference: {fileID: 0}
    - target: {fileID: 4775219554002278, guid: 6b444276162548b4e9107350b71e775a, type: 3}
      propertyPath: m_LocalScale.y
      value: 0.7495092
      objectReference: {fileID: 0}
    - target: {fileID: 4775219554002278, guid: 6b444276162548b4e9107350b71e775a, type: 3}
      propertyPath: m_LocalScale.z
      value: 0.80139613
      objectReference: {fileID: 0}
    m_RemovedComponents: []
  m_SourcePrefab: {fileID: 100100000, guid: 6b444276162548b4e9107350b71e775a, type: 3}
--- !u!4 &131336118 stripped
Transform:
  m_CorrespondingSourceObject: {fileID: 4775219554002278, guid: 6b444276162548b4e9107350b71e775a,
    type: 3}
  m_PrefabInstance: {fileID: 131336117}
  m_PrefabAsset: {fileID: 0}
--- !u!1001 &164520525
PrefabInstance:
  m_ObjectHideFlags: 0
  serializedVersion: 2
  m_Modification:
    m_TransformParent: {fileID: 190659020}
    m_Modifications:
    - target: {fileID: 1081485305171292, guid: c23a5db78ca1a5b4f921e0109f33128c, type: 3}
      propertyPath: m_StaticEditorFlags
      value: 4294967295
      objectReference: {fileID: 0}
    - target: {fileID: 4526791939225540, guid: c23a5db78ca1a5b4f921e0109f33128c, type: 3}
      propertyPath: m_LocalPosition.x
      value: -7.42
      objectReference: {fileID: 0}
    - target: {fileID: 4526791939225540, guid: c23a5db78ca1a5b4f921e0109f33128c, type: 3}
      propertyPath: m_LocalPosition.y
      value: 2.48
      objectReference: {fileID: 0}
    - target: {fileID: 4526791939225540, guid: c23a5db78ca1a5b4f921e0109f33128c, type: 3}
      propertyPath: m_LocalPosition.z
      value: 11.68
      objectReference: {fileID: 0}
    - target: {fileID: 4526791939225540, guid: c23a5db78ca1a5b4f921e0109f33128c, type: 3}
      propertyPath: m_LocalRotation.x
      value: -0.7071068
      objectReference: {fileID: 0}
    - target: {fileID: 4526791939225540, guid: c23a5db78ca1a5b4f921e0109f33128c, type: 3}
      propertyPath: m_LocalRotation.y
      value: -0
      objectReference: {fileID: 0}
    - target: {fileID: 4526791939225540, guid: c23a5db78ca1a5b4f921e0109f33128c, type: 3}
      propertyPath: m_LocalRotation.z
      value: -0
      objectReference: {fileID: 0}
    - target: {fileID: 4526791939225540, guid: c23a5db78ca1a5b4f921e0109f33128c, type: 3}
      propertyPath: m_LocalRotation.w
      value: 0.7071068
      objectReference: {fileID: 0}
    - target: {fileID: 4526791939225540, guid: c23a5db78ca1a5b4f921e0109f33128c, type: 3}
      propertyPath: m_RootOrder
      value: 7
      objectReference: {fileID: 0}
    - target: {fileID: 4526791939225540, guid: c23a5db78ca1a5b4f921e0109f33128c, type: 3}
      propertyPath: m_LocalScale.y
      value: 2
      objectReference: {fileID: 0}
    - target: {fileID: 4526791939225540, guid: c23a5db78ca1a5b4f921e0109f33128c, type: 3}
      propertyPath: m_LocalScale.z
      value: 2
      objectReference: {fileID: 0}
    m_RemovedComponents: []
  m_SourcePrefab: {fileID: 100100000, guid: c23a5db78ca1a5b4f921e0109f33128c, type: 3}
--- !u!4 &164520526 stripped
Transform:
  m_CorrespondingSourceObject: {fileID: 4526791939225540, guid: c23a5db78ca1a5b4f921e0109f33128c,
    type: 3}
  m_PrefabInstance: {fileID: 164520525}
  m_PrefabAsset: {fileID: 0}
--- !u!1 &190659019
GameObject:
  m_ObjectHideFlags: 0
  m_CorrespondingSourceObject: {fileID: 0}
  m_PrefabInstance: {fileID: 0}
  m_PrefabAsset: {fileID: 0}
  serializedVersion: 6
  m_Component:
  - component: {fileID: 190659020}
  m_Layer: 0
  m_Name: ENVIRONMENT
  m_TagString: Untagged
  m_Icon: {fileID: 0}
  m_NavMeshLayer: 0
  m_StaticEditorFlags: 4294967295
  m_IsActive: 1
--- !u!4 &190659020
Transform:
  m_ObjectHideFlags: 0
  m_CorrespondingSourceObject: {fileID: 0}
  m_PrefabInstance: {fileID: 0}
  m_PrefabAsset: {fileID: 0}
  m_GameObject: {fileID: 190659019}
  m_LocalRotation: {x: 0, y: 0, z: 0, w: 1}
  m_LocalPosition: {x: 5.7351627, y: -2.952077, z: -4.415718}
  m_LocalScale: {x: 1, y: 1, z: 1}
  m_Children:
  - {fileID: 474238226}
  - {fileID: 1493008576}
  - {fileID: 350596173}
  - {fileID: 680975386}
  - {fileID: 1534577184}
  - {fileID: 1768519241}
  - {fileID: 45879394}
  - {fileID: 164520526}
  - {fileID: 1463404879}
  - {fileID: 821686574}
  - {fileID: 4114579}
  - {fileID: 1849434206}
  - {fileID: 36479350}
  - {fileID: 2038063333}
  - {fileID: 131336118}
  - {fileID: 628412522}
  - {fileID: 1190695448}
  - {fileID: 309155769}
  - {fileID: 899880727}
  - {fileID: 805072177}
  - {fileID: 407210558}
  - {fileID: 670807903}
  - {fileID: 964280452}
  - {fileID: 1200616502}
  - {fileID: 359641103}
  - {fileID: 1274041936}
  - {fileID: 1076026797}
  - {fileID: 1481245358}
  - {fileID: 1028935023}
  m_Father: {fileID: 0}
  m_RootOrder: 2
  m_LocalEulerAnglesHint: {x: 0, y: 0, z: 0}
--- !u!1001 &309155768
PrefabInstance:
  m_ObjectHideFlags: 0
  serializedVersion: 2
  m_Modification:
    m_TransformParent: {fileID: 190659020}
    m_Modifications:
    - target: {fileID: 1593950697155818, guid: d2cd02263a1e8084abf81f1324b929be, type: 3}
      propertyPath: m_Name
      value: LowPoly - FirTree B (8)
      objectReference: {fileID: 0}
    - target: {fileID: 1593950697155818, guid: d2cd02263a1e8084abf81f1324b929be, type: 3}
      propertyPath: m_StaticEditorFlags
      value: 4294967295
      objectReference: {fileID: 0}
    - target: {fileID: 4870204933709518, guid: d2cd02263a1e8084abf81f1324b929be, type: 3}
      propertyPath: m_LocalPosition.x
      value: 5.020545
      objectReference: {fileID: 0}
    - target: {fileID: 4870204933709518, guid: d2cd02263a1e8084abf81f1324b929be, type: 3}
      propertyPath: m_LocalPosition.y
      value: 2.8991811
      objectReference: {fileID: 0}
    - target: {fileID: 4870204933709518, guid: d2cd02263a1e8084abf81f1324b929be, type: 3}
      propertyPath: m_LocalPosition.z
      value: 15.191633
      objectReference: {fileID: 0}
    - target: {fileID: 4870204933709518, guid: d2cd02263a1e8084abf81f1324b929be, type: 3}
      propertyPath: m_LocalRotation.x
      value: -0.70394385
      objectReference: {fileID: 0}
    - target: {fileID: 4870204933709518, guid: d2cd02263a1e8084abf81f1324b929be, type: 3}
      propertyPath: m_LocalRotation.y
      value: -0.13434333
      objectReference: {fileID: 0}
    - target: {fileID: 4870204933709518, guid: d2cd02263a1e8084abf81f1324b929be, type: 3}
      propertyPath: m_LocalRotation.z
      value: -0.10358276
      objectReference: {fileID: 0}
    - target: {fileID: 4870204933709518, guid: d2cd02263a1e8084abf81f1324b929be, type: 3}
      propertyPath: m_LocalRotation.w
      value: 0.6896996
      objectReference: {fileID: 0}
    - target: {fileID: 4870204933709518, guid: d2cd02263a1e8084abf81f1324b929be, type: 3}
      propertyPath: m_RootOrder
      value: 17
      objectReference: {fileID: 0}
    - target: {fileID: 4870204933709518, guid: d2cd02263a1e8084abf81f1324b929be, type: 3}
      propertyPath: m_LocalScale.x
      value: 1.3872777
      objectReference: {fileID: 0}
    - target: {fileID: 4870204933709518, guid: d2cd02263a1e8084abf81f1324b929be, type: 3}
      propertyPath: m_LocalScale.y
      value: 1.4516172
      objectReference: {fileID: 0}
    - target: {fileID: 4870204933709518, guid: d2cd02263a1e8084abf81f1324b929be, type: 3}
      propertyPath: m_LocalScale.z
      value: 1.5521092
      objectReference: {fileID: 0}
    m_RemovedComponents: []
  m_SourcePrefab: {fileID: 100100000, guid: d2cd02263a1e8084abf81f1324b929be, type: 3}
--- !u!4 &309155769 stripped
Transform:
  m_CorrespondingSourceObject: {fileID: 4870204933709518, guid: d2cd02263a1e8084abf81f1324b929be,
    type: 3}
  m_PrefabInstance: {fileID: 309155768}
  m_PrefabAsset: {fileID: 0}
--- !u!1001 &350596172
PrefabInstance:
  m_ObjectHideFlags: 0
  serializedVersion: 2
  m_Modification:
    m_TransformParent: {fileID: 190659020}
    m_Modifications:
    - target: {fileID: 4945391837379990, guid: 9b6eba5dea9e77a4abd8f45df1ffffb6, type: 3}
      propertyPath: m_LocalPosition.x
      value: 0.08621216
      objectReference: {fileID: 0}
    - target: {fileID: 4945391837379990, guid: 9b6eba5dea9e77a4abd8f45df1ffffb6, type: 3}
      propertyPath: m_LocalPosition.y
      value: 3.219789
      objectReference: {fileID: 0}
    - target: {fileID: 4945391837379990, guid: 9b6eba5dea9e77a4abd8f45df1ffffb6, type: 3}
      propertyPath: m_LocalPosition.z
      value: 13.386169
      objectReference: {fileID: 0}
    - target: {fileID: 4945391837379990, guid: 9b6eba5dea9e77a4abd8f45df1ffffb6, type: 3}
      propertyPath: m_LocalRotation.x
      value: -0.7071068
      objectReference: {fileID: 0}
    - target: {fileID: 4945391837379990, guid: 9b6eba5dea9e77a4abd8f45df1ffffb6, type: 3}
      propertyPath: m_LocalRotation.y
      value: -0
      objectReference: {fileID: 0}
    - target: {fileID: 4945391837379990, guid: 9b6eba5dea9e77a4abd8f45df1ffffb6, type: 3}
      propertyPath: m_LocalRotation.z
      value: -0
      objectReference: {fileID: 0}
    - target: {fileID: 4945391837379990, guid: 9b6eba5dea9e77a4abd8f45df1ffffb6, type: 3}
      propertyPath: m_LocalRotation.w
      value: 0.7071068
      objectReference: {fileID: 0}
    - target: {fileID: 4945391837379990, guid: 9b6eba5dea9e77a4abd8f45df1ffffb6, type: 3}
      propertyPath: m_RootOrder
      value: 2
      objectReference: {fileID: 0}
    - target: {fileID: 4945391837379990, guid: 9b6eba5dea9e77a4abd8f45df1ffffb6, type: 3}
      propertyPath: m_LocalScale.y
      value: 1.500001
      objectReference: {fileID: 0}
    - target: {fileID: 4945391837379990, guid: 9b6eba5dea9e77a4abd8f45df1ffffb6, type: 3}
      propertyPath: m_LocalScale.z
      value: 1.500001
      objectReference: {fileID: 0}
    m_RemovedComponents: []
  m_SourcePrefab: {fileID: 100100000, guid: 9b6eba5dea9e77a4abd8f45df1ffffb6, type: 3}
--- !u!4 &350596173 stripped
Transform:
  m_CorrespondingSourceObject: {fileID: 4945391837379990, guid: 9b6eba5dea9e77a4abd8f45df1ffffb6,
    type: 3}
  m_PrefabInstance: {fileID: 350596172}
  m_PrefabAsset: {fileID: 0}
--- !u!1001 &359641102
PrefabInstance:
  m_ObjectHideFlags: 0
  serializedVersion: 2
  m_Modification:
    m_TransformParent: {fileID: 190659020}
    m_Modifications:
    - target: {fileID: 1593950697155818, guid: d2cd02263a1e8084abf81f1324b929be, type: 3}
      propertyPath: m_Name
      value: LowPoly - FirTree B (14)
      objectReference: {fileID: 0}
    - target: {fileID: 1593950697155818, guid: d2cd02263a1e8084abf81f1324b929be, type: 3}
      propertyPath: m_StaticEditorFlags
      value: 4294967295
      objectReference: {fileID: 0}
    - target: {fileID: 4870204933709518, guid: d2cd02263a1e8084abf81f1324b929be, type: 3}
      propertyPath: m_LocalPosition.x
      value: -18.34
      objectReference: {fileID: 0}
    - target: {fileID: 4870204933709518, guid: d2cd02263a1e8084abf81f1324b929be, type: 3}
      propertyPath: m_LocalPosition.y
      value: 3.11
      objectReference: {fileID: 0}
    - target: {fileID: 4870204933709518, guid: d2cd02263a1e8084abf81f1324b929be, type: 3}
      propertyPath: m_LocalPosition.z
      value: 11.5
      objectReference: {fileID: 0}
    - target: {fileID: 4870204933709518, guid: d2cd02263a1e8084abf81f1324b929be, type: 3}
      propertyPath: m_LocalRotation.x
      value: -0.42529565
      objectReference: {fileID: 0}
    - target: {fileID: 4870204933709518, guid: d2cd02263a1e8084abf81f1324b929be, type: 3}
      propertyPath: m_LocalRotation.y
      value: 0.57680905
      objectReference: {fileID: 0}
    - target: {fileID: 4870204933709518, guid: d2cd02263a1e8084abf81f1324b929be, type: 3}
      propertyPath: m_LocalRotation.z
      value: 0.5772529
      objectReference: {fileID: 0}
    - target: {fileID: 4870204933709518, guid: d2cd02263a1e8084abf81f1324b929be, type: 3}
      propertyPath: m_LocalRotation.w
      value: 0.39140007
      objectReference: {fileID: 0}
    - target: {fileID: 4870204933709518, guid: d2cd02263a1e8084abf81f1324b929be, type: 3}
      propertyPath: m_RootOrder
      value: 24
      objectReference: {fileID: 0}
    - target: {fileID: 4870204933709518, guid: d2cd02263a1e8084abf81f1324b929be, type: 3}
      propertyPath: m_LocalEulerAnglesHint.y
      value: 55.463997
      objectReference: {fileID: 0}
    - target: {fileID: 4870204933709518, guid: d2cd02263a1e8084abf81f1324b929be, type: 3}
      propertyPath: m_LocalEulerAnglesHint.z
      value: 53.963997
      objectReference: {fileID: 0}
    - target: {fileID: 4870204933709518, guid: d2cd02263a1e8084abf81f1324b929be, type: 3}
      propertyPath: m_LocalScale.y
      value: 0.763031
      objectReference: {fileID: 0}
    - target: {fileID: 4870204933709518, guid: d2cd02263a1e8084abf81f1324b929be, type: 3}
      propertyPath: m_LocalScale.x
      value: 0.72921395
      objectReference: {fileID: 0}
    - target: {fileID: 4870204933709518, guid: d2cd02263a1e8084abf81f1324b929be, type: 3}
      propertyPath: m_LocalScale.z
      value: 0.81585807
      objectReference: {fileID: 0}
    m_RemovedComponents: []
  m_SourcePrefab: {fileID: 100100000, guid: d2cd02263a1e8084abf81f1324b929be, type: 3}
--- !u!4 &359641103 stripped
Transform:
  m_CorrespondingSourceObject: {fileID: 4870204933709518, guid: d2cd02263a1e8084abf81f1324b929be,
    type: 3}
  m_PrefabInstance: {fileID: 359641102}
  m_PrefabAsset: {fileID: 0}
--- !u!1001 &407210557
PrefabInstance:
  m_ObjectHideFlags: 0
  serializedVersion: 2
  m_Modification:
    m_TransformParent: {fileID: 190659020}
    m_Modifications:
    - target: {fileID: 1593950697155818, guid: d2cd02263a1e8084abf81f1324b929be, type: 3}
      propertyPath: m_Name
      value: LowPoly - FirTree B (2)
      objectReference: {fileID: 0}
    - target: {fileID: 1593950697155818, guid: d2cd02263a1e8084abf81f1324b929be, type: 3}
      propertyPath: m_StaticEditorFlags
      value: 4294967295
      objectReference: {fileID: 0}
    - target: {fileID: 4870204933709518, guid: d2cd02263a1e8084abf81f1324b929be, type: 3}
      propertyPath: m_LocalPosition.x
      value: -11.698242
      objectReference: {fileID: 0}
    - target: {fileID: 4870204933709518, guid: d2cd02263a1e8084abf81f1324b929be, type: 3}
      propertyPath: m_LocalPosition.y
      value: 2.8418422
      objectReference: {fileID: 0}
    - target: {fileID: 4870204933709518, guid: d2cd02263a1e8084abf81f1324b929be, type: 3}
      propertyPath: m_LocalPosition.z
      value: -3.8187504
      objectReference: {fileID: 0}
    - target: {fileID: 4870204933709518, guid: d2cd02263a1e8084abf81f1324b929be, type: 3}
      propertyPath: m_LocalRotation.x
      value: -0.59049016
      objectReference: {fileID: 0}
    - target: {fileID: 4870204933709518, guid: d2cd02263a1e8084abf81f1324b929be, type: 3}
      propertyPath: m_LocalRotation.y
      value: 0.40608677
      objectReference: {fileID: 0}
    - target: {fileID: 4870204933709518, guid: d2cd02263a1e8084abf81f1324b929be, type: 3}
      propertyPath: m_LocalRotation.z
      value: 0.41758683
      objectReference: {fileID: 0}
    - target: {fileID: 4870204933709518, guid: d2cd02263a1e8084abf81f1324b929be, type: 3}
      propertyPath: m_LocalRotation.w
      value: 0.558602
      objectReference: {fileID: 0}
    - target: {fileID: 4870204933709518, guid: d2cd02263a1e8084abf81f1324b929be, type: 3}
      propertyPath: m_RootOrder
      value: 20
      objectReference: {fileID: 0}
    - target: {fileID: 4870204933709518, guid: d2cd02263a1e8084abf81f1324b929be, type: 3}
      propertyPath: m_LocalEulerAnglesHint.y
      value: 55.463997
      objectReference: {fileID: 0}
    - target: {fileID: 4870204933709518, guid: d2cd02263a1e8084abf81f1324b929be, type: 3}
      propertyPath: m_LocalEulerAnglesHint.z
      value: 15.801987
      objectReference: {fileID: 0}
    - target: {fileID: 4870204933709518, guid: d2cd02263a1e8084abf81f1324b929be, type: 3}
      propertyPath: m_LocalScale.y
      value: 0.93525463
      objectReference: {fileID: 0}
    - target: {fileID: 4870204933709518, guid: d2cd02263a1e8084abf81f1324b929be, type: 3}
      propertyPath: m_LocalScale.x
      value: 0.8938016
      objectReference: {fileID: 0}
    - target: {fileID: 4870204933709518, guid: d2cd02263a1e8084abf81f1324b929be, type: 3}
      propertyPath: m_LocalScale.z
      value: 1
      objectReference: {fileID: 0}
    m_RemovedComponents: []
  m_SourcePrefab: {fileID: 100100000, guid: d2cd02263a1e8084abf81f1324b929be, type: 3}
--- !u!4 &407210558 stripped
Transform:
  m_CorrespondingSourceObject: {fileID: 4870204933709518, guid: d2cd02263a1e8084abf81f1324b929be,
    type: 3}
  m_PrefabInstance: {fileID: 407210557}
  m_PrefabAsset: {fileID: 0}
--- !u!1001 &474238225
PrefabInstance:
  m_ObjectHideFlags: 0
  serializedVersion: 2
  m_Modification:
    m_TransformParent: {fileID: 190659020}
    m_Modifications:
    - target: {fileID: 1051545866392792, guid: dd3ee0c97aab8a7498c9292f3482f60b, type: 3}
      propertyPath: m_StaticEditorFlags
      value: 4294967295
      objectReference: {fileID: 0}
    - target: {fileID: 4622981333497442, guid: dd3ee0c97aab8a7498c9292f3482f60b, type: 3}
      propertyPath: m_LocalPosition.x
      value: -0.8251629
      objectReference: {fileID: 0}
    - target: {fileID: 4622981333497442, guid: dd3ee0c97aab8a7498c9292f3482f60b, type: 3}
      propertyPath: m_LocalPosition.y
      value: 2.8220768
      objectReference: {fileID: 0}
    - target: {fileID: 4622981333497442, guid: dd3ee0c97aab8a7498c9292f3482f60b, type: 3}
      propertyPath: m_LocalPosition.z
      value: -0.5742817
      objectReference: {fileID: 0}
    - target: {fileID: 4622981333497442, guid: dd3ee0c97aab8a7498c9292f3482f60b, type: 3}
      propertyPath: m_LocalRotation.x
      value: -0.66287565
      objectReference: {fileID: 0}
    - target: {fileID: 4622981333497442, guid: dd3ee0c97aab8a7498c9292f3482f60b, type: 3}
      propertyPath: m_LocalRotation.y
      value: -0.24616241
      objectReference: {fileID: 0}
    - target: {fileID: 4622981333497442, guid: dd3ee0c97aab8a7498c9292f3482f60b, type: 3}
      propertyPath: m_LocalRotation.z
      value: -0.24616237
      objectReference: {fileID: 0}
    - target: {fileID: 4622981333497442, guid: dd3ee0c97aab8a7498c9292f3482f60b, type: 3}
      propertyPath: m_LocalRotation.w
      value: 0.66287565
      objectReference: {fileID: 0}
    - target: {fileID: 4622981333497442, guid: dd3ee0c97aab8a7498c9292f3482f60b, type: 3}
      propertyPath: m_RootOrder
      value: 0
      objectReference: {fileID: 0}
    - target: {fileID: 4622981333497442, guid: dd3ee0c97aab8a7498c9292f3482f60b, type: 3}
      propertyPath: m_LocalEulerAnglesHint.x
      value: -90.00001
      objectReference: {fileID: 0}
    - target: {fileID: 4622981333497442, guid: dd3ee0c97aab8a7498c9292f3482f60b, type: 3}
      propertyPath: m_LocalEulerAnglesHint.z
      value: -40.746002
      objectReference: {fileID: 0}
    - target: {fileID: 4622981333497442, guid: dd3ee0c97aab8a7498c9292f3482f60b, type: 3}
      propertyPath: m_LocalScale.y
      value: 1
      objectReference: {fileID: 0}
    - target: {fileID: 4622981333497442, guid: dd3ee0c97aab8a7498c9292f3482f60b, type: 3}
      propertyPath: m_LocalScale.z
      value: 1
      objectReference: {fileID: 0}
    m_RemovedComponents: []
  m_SourcePrefab: {fileID: 100100000, guid: dd3ee0c97aab8a7498c9292f3482f60b, type: 3}
--- !u!4 &474238226 stripped
Transform:
  m_CorrespondingSourceObject: {fileID: 4622981333497442, guid: dd3ee0c97aab8a7498c9292f3482f60b,
    type: 3}
  m_PrefabInstance: {fileID: 474238225}
  m_PrefabAsset: {fileID: 0}
--- !u!1001 &628412521
PrefabInstance:
  m_ObjectHideFlags: 0
  serializedVersion: 2
  m_Modification:
    m_TransformParent: {fileID: 190659020}
    m_Modifications:
    - target: {fileID: 1069289201138886, guid: 6b444276162548b4e9107350b71e775a, type: 3}
      propertyPath: m_Name
      value: LowPoly - FirTree A (1)
      objectReference: {fileID: 0}
    - target: {fileID: 1069289201138886, guid: 6b444276162548b4e9107350b71e775a, type: 3}
      propertyPath: m_StaticEditorFlags
      value: 4294967295
      objectReference: {fileID: 0}
    - target: {fileID: 4775219554002278, guid: 6b444276162548b4e9107350b71e775a, type: 3}
      propertyPath: m_LocalPosition.x
      value: -16.36
      objectReference: {fileID: 0}
    - target: {fileID: 4775219554002278, guid: 6b444276162548b4e9107350b71e775a, type: 3}
      propertyPath: m_LocalPosition.y
      value: 3.1664653
      objectReference: {fileID: 0}
    - target: {fileID: 4775219554002278, guid: 6b444276162548b4e9107350b71e775a, type: 3}
      propertyPath: m_LocalPosition.z
      value: -5.92
      objectReference: {fileID: 0}
    - target: {fileID: 4775219554002278, guid: 6b444276162548b4e9107350b71e775a, type: 3}
      propertyPath: m_LocalRotation.x
      value: -0.5959703
      objectReference: {fileID: 0}
    - target: {fileID: 4775219554002278, guid: 6b444276162548b4e9107350b71e775a, type: 3}
      propertyPath: m_LocalRotation.y
      value: -0.38055158
      objectReference: {fileID: 0}
    - target: {fileID: 4775219554002278, guid: 6b444276162548b4e9107350b71e775a, type: 3}
      propertyPath: m_LocalRotation.z
      value: -0.38055146
      objectReference: {fileID: 0}
    - target: {fileID: 4775219554002278, guid: 6b444276162548b4e9107350b71e775a, type: 3}
      propertyPath: m_LocalRotation.w
      value: 0.5959703
      objectReference: {fileID: 0}
    - target: {fileID: 4775219554002278, guid: 6b444276162548b4e9107350b71e775a, type: 3}
      propertyPath: m_RootOrder
      value: 15
      objectReference: {fileID: 0}
    - target: {fileID: 4775219554002278, guid: 6b444276162548b4e9107350b71e775a, type: 3}
      propertyPath: m_LocalEulerAnglesHint.x
      value: -90.00001
      objectReference: {fileID: 0}
    - target: {fileID: 4775219554002278, guid: 6b444276162548b4e9107350b71e775a, type: 3}
      propertyPath: m_LocalEulerAnglesHint.z
      value: -65.12
      objectReference: {fileID: 0}
    - target: {fileID: 4775219554002278, guid: 6b444276162548b4e9107350b71e775a, type: 3}
      propertyPath: m_LocalScale.x
      value: 1.2266186
      objectReference: {fileID: 0}
    - target: {fileID: 4775219554002278, guid: 6b444276162548b4e9107350b71e775a, type: 3}
      propertyPath: m_LocalScale.y
      value: 1.1329207
      objectReference: {fileID: 0}
    - target: {fileID: 4775219554002278, guid: 6b444276162548b4e9107350b71e775a, type: 3}
      propertyPath: m_LocalScale.z
      value: 1.3723607
      objectReference: {fileID: 0}
    m_RemovedComponents: []
  m_SourcePrefab: {fileID: 100100000, guid: 6b444276162548b4e9107350b71e775a, type: 3}
--- !u!4 &628412522 stripped
Transform:
  m_CorrespondingSourceObject: {fileID: 4775219554002278, guid: 6b444276162548b4e9107350b71e775a,
    type: 3}
  m_PrefabInstance: {fileID: 628412521}
  m_PrefabAsset: {fileID: 0}
--- !u!1001 &670807902
PrefabInstance:
  m_ObjectHideFlags: 0
  serializedVersion: 2
  m_Modification:
    m_TransformParent: {fileID: 190659020}
    m_Modifications:
    - target: {fileID: 1593950697155818, guid: d2cd02263a1e8084abf81f1324b929be, type: 3}
      propertyPath: m_Name
      value: LowPoly - FirTree B (1)
      objectReference: {fileID: 0}
    - target: {fileID: 1593950697155818, guid: d2cd02263a1e8084abf81f1324b929be, type: 3}
      propertyPath: m_StaticEditorFlags
      value: 4294967295
      objectReference: {fileID: 0}
    - target: {fileID: 4870204933709518, guid: d2cd02263a1e8084abf81f1324b929be, type: 3}
      propertyPath: m_LocalPosition.x
      value: -9.667221
      objectReference: {fileID: 0}
    - target: {fileID: 4870204933709518, guid: d2cd02263a1e8084abf81f1324b929be, type: 3}
      propertyPath: m_LocalPosition.y
      value: 3.0440962
      objectReference: {fileID: 0}
    - target: {fileID: 4870204933709518, guid: d2cd02263a1e8084abf81f1324b929be, type: 3}
      propertyPath: m_LocalPosition.z
      value: -7.436466
      objectReference: {fileID: 0}
    - target: {fileID: 4870204933709518, guid: d2cd02263a1e8084abf81f1324b929be, type: 3}
      propertyPath: m_LocalRotation.x
      value: -0.70394385
      objectReference: {fileID: 0}
    - target: {fileID: 4870204933709518, guid: d2cd02263a1e8084abf81f1324b929be, type: 3}
      propertyPath: m_LocalRotation.y
      value: -0.13434333
      objectReference: {fileID: 0}
    - target: {fileID: 4870204933709518, guid: d2cd02263a1e8084abf81f1324b929be, type: 3}
      propertyPath: m_LocalRotation.z
      value: -0.10358276
      objectReference: {fileID: 0}
    - target: {fileID: 4870204933709518, guid: d2cd02263a1e8084abf81f1324b929be, type: 3}
      propertyPath: m_LocalRotation.w
      value: 0.6896996
      objectReference: {fileID: 0}
    - target: {fileID: 4870204933709518, guid: d2cd02263a1e8084abf81f1324b929be, type: 3}
      propertyPath: m_RootOrder
      value: 21
      objectReference: {fileID: 0}
    - target: {fileID: 4870204933709518, guid: d2cd02263a1e8084abf81f1324b929be, type: 3}
      propertyPath: m_LocalScale.x
      value: 1.1777081
      objectReference: {fileID: 0}
    - target: {fileID: 4870204933709518, guid: d2cd02263a1e8084abf81f1324b929be, type: 3}
      propertyPath: m_LocalScale.y
      value: 1.2323283
      objectReference: {fileID: 0}
    - target: {fileID: 4870204933709518, guid: d2cd02263a1e8084abf81f1324b929be, type: 3}
      propertyPath: m_LocalScale.z
      value: 1.3176392
      objectReference: {fileID: 0}
    m_RemovedComponents: []
  m_SourcePrefab: {fileID: 100100000, guid: d2cd02263a1e8084abf81f1324b929be, type: 3}
--- !u!4 &670807903 stripped
Transform:
  m_CorrespondingSourceObject: {fileID: 4870204933709518, guid: d2cd02263a1e8084abf81f1324b929be,
    type: 3}
  m_PrefabInstance: {fileID: 670807902}
  m_PrefabAsset: {fileID: 0}
--- !u!1001 &680975385
PrefabInstance:
  m_ObjectHideFlags: 0
  serializedVersion: 2
  m_Modification:
    m_TransformParent: {fileID: 190659020}
    m_Modifications:
    - target: {fileID: 1435467742513656, guid: 9b6eba5dea9e77a4abd8f45df1ffffb6, type: 3}
      propertyPath: m_Name
      value: LowPoly - Grass A (2)
      objectReference: {fileID: 0}
    - target: {fileID: 1435467742513656, guid: 9b6eba5dea9e77a4abd8f45df1ffffb6, type: 3}
      propertyPath: m_StaticEditorFlags
      value: 4294967295
      objectReference: {fileID: 0}
    - target: {fileID: 4945391837379990, guid: 9b6eba5dea9e77a4abd8f45df1ffffb6, type: 3}
      propertyPath: m_LocalPosition.x
      value: -14.86991
      objectReference: {fileID: 0}
    - target: {fileID: 4945391837379990, guid: 9b6eba5dea9e77a4abd8f45df1ffffb6, type: 3}
      propertyPath: m_LocalPosition.y
      value: 2.9826412
      objectReference: {fileID: 0}
    - target: {fileID: 4945391837379990, guid: 9b6eba5dea9e77a4abd8f45df1ffffb6, type: 3}
      propertyPath: m_LocalPosition.z
      value: -0.57774734
      objectReference: {fileID: 0}
    - target: {fileID: 4945391837379990, guid: 9b6eba5dea9e77a4abd8f45df1ffffb6, type: 3}
      propertyPath: m_LocalRotation.x
      value: -0.7071068
      objectReference: {fileID: 0}
    - target: {fileID: 4945391837379990, guid: 9b6eba5dea9e77a4abd8f45df1ffffb6, type: 3}
      propertyPath: m_LocalRotation.y
      value: -0
      objectReference: {fileID: 0}
    - target: {fileID: 4945391837379990, guid: 9b6eba5dea9e77a4abd8f45df1ffffb6, type: 3}
      propertyPath: m_LocalRotation.z
      value: -0
      objectReference: {fileID: 0}
    - target: {fileID: 4945391837379990, guid: 9b6eba5dea9e77a4abd8f45df1ffffb6, type: 3}
      propertyPath: m_LocalRotation.w
      value: 0.7071068
      objectReference: {fileID: 0}
    - target: {fileID: 4945391837379990, guid: 9b6eba5dea9e77a4abd8f45df1ffffb6, type: 3}
      propertyPath: m_RootOrder
      value: 3
      objectReference: {fileID: 0}
    - target: {fileID: 4945391837379990, guid: 9b6eba5dea9e77a4abd8f45df1ffffb6, type: 3}
      propertyPath: m_LocalScale.y
      value: 2
      objectReference: {fileID: 0}
    - target: {fileID: 4945391837379990, guid: 9b6eba5dea9e77a4abd8f45df1ffffb6, type: 3}
      propertyPath: m_LocalScale.z
      value: 2
      objectReference: {fileID: 0}
    m_RemovedComponents: []
  m_SourcePrefab: {fileID: 100100000, guid: 9b6eba5dea9e77a4abd8f45df1ffffb6, type: 3}
--- !u!4 &680975386 stripped
Transform:
  m_CorrespondingSourceObject: {fileID: 4945391837379990, guid: 9b6eba5dea9e77a4abd8f45df1ffffb6,
    type: 3}
  m_PrefabInstance: {fileID: 680975385}
  m_PrefabAsset: {fileID: 0}
--- !u!1001 &805072176
PrefabInstance:
  m_ObjectHideFlags: 0
  serializedVersion: 2
  m_Modification:
    m_TransformParent: {fileID: 190659020}
    m_Modifications:
    - target: {fileID: 1593950697155818, guid: d2cd02263a1e8084abf81f1324b929be, type: 3}
      propertyPath: m_Name
      value: LowPoly - FirTree B (5)
      objectReference: {fileID: 0}
    - target: {fileID: 1593950697155818, guid: d2cd02263a1e8084abf81f1324b929be, type: 3}
      propertyPath: m_StaticEditorFlags
      value: 4294967295
      objectReference: {fileID: 0}
    - target: {fileID: 4870204933709518, guid: d2cd02263a1e8084abf81f1324b929be, type: 3}
      propertyPath: m_LocalPosition.x
      value: -12.350149
      objectReference: {fileID: 0}
    - target: {fileID: 4870204933709518, guid: d2cd02263a1e8084abf81f1324b929be, type: 3}
      propertyPath: m_LocalPosition.y
      value: 2.9547312
      objectReference: {fileID: 0}
    - target: {fileID: 4870204933709518, guid: d2cd02263a1e8084abf81f1324b929be, type: 3}
      propertyPath: m_LocalPosition.z
      value: 16.468685
      objectReference: {fileID: 0}
    - target: {fileID: 4870204933709518, guid: d2cd02263a1e8084abf81f1324b929be, type: 3}
      propertyPath: m_LocalRotation.x
      value: -0.5387579
      objectReference: {fileID: 0}
    - target: {fileID: 4870204933709518, guid: d2cd02263a1e8084abf81f1324b929be, type: 3}
      propertyPath: m_LocalRotation.y
      value: -0.4725727
      objectReference: {fileID: 0}
    - target: {fileID: 4870204933709518, guid: d2cd02263a1e8084abf81f1324b929be, type: 3}
      propertyPath: m_LocalRotation.z
      value: -0.4388362
      objectReference: {fileID: 0}
    - target: {fileID: 4870204933709518, guid: d2cd02263a1e8084abf81f1324b929be, type: 3}
      propertyPath: m_LocalRotation.w
      value: 0.54206806
      objectReference: {fileID: 0}
    - target: {fileID: 4870204933709518, guid: d2cd02263a1e8084abf81f1324b929be, type: 3}
      propertyPath: m_RootOrder
      value: 19
      objectReference: {fileID: 0}
    - target: {fileID: 4870204933709518, guid: d2cd02263a1e8084abf81f1324b929be, type: 3}
      propertyPath: m_LocalEulerAnglesHint.z
      value: -135.743
      objectReference: {fileID: 0}
    - target: {fileID: 4870204933709518, guid: d2cd02263a1e8084abf81f1324b929be, type: 3}
      propertyPath: m_LocalEulerAnglesHint.y
      value: 55.463997
      objectReference: {fileID: 0}
    - target: {fileID: 4870204933709518, guid: d2cd02263a1e8084abf81f1324b929be, type: 3}
      propertyPath: m_LocalScale.y
      value: 0.9352546
      objectReference: {fileID: 0}
    - target: {fileID: 4870204933709518, guid: d2cd02263a1e8084abf81f1324b929be, type: 3}
      propertyPath: m_LocalScale.x
      value: 0.89380175
      objectReference: {fileID: 0}
    - target: {fileID: 4870204933709518, guid: d2cd02263a1e8084abf81f1324b929be, type: 3}
      propertyPath: m_LocalScale.z
      value: 1
      objectReference: {fileID: 0}
    m_RemovedComponents: []
  m_SourcePrefab: {fileID: 100100000, guid: d2cd02263a1e8084abf81f1324b929be, type: 3}
--- !u!4 &805072177 stripped
Transform:
  m_CorrespondingSourceObject: {fileID: 4870204933709518, guid: d2cd02263a1e8084abf81f1324b929be,
    type: 3}
  m_PrefabInstance: {fileID: 805072176}
  m_PrefabAsset: {fileID: 0}
--- !u!1001 &821686573
PrefabInstance:
  m_ObjectHideFlags: 0
  serializedVersion: 2
  m_Modification:
    m_TransformParent: {fileID: 190659020}
    m_Modifications:
    - target: {fileID: 1828138642645558, guid: b0622c7c0ff092b46a37f31c718c5eba, type: 3}
      propertyPath: m_Name
      value: LowPoly - Rock B (1)
      objectReference: {fileID: 0}
    - target: {fileID: 1828138642645558, guid: b0622c7c0ff092b46a37f31c718c5eba, type: 3}
      propertyPath: m_StaticEditorFlags
      value: 4294967295
      objectReference: {fileID: 0}
    - target: {fileID: 4739574486837986, guid: b0622c7c0ff092b46a37f31c718c5eba, type: 3}
      propertyPath: m_LocalPosition.x
      value: -2.352697
      objectReference: {fileID: 0}
    - target: {fileID: 4739574486837986, guid: b0622c7c0ff092b46a37f31c718c5eba, type: 3}
      propertyPath: m_LocalPosition.y
      value: 3.0080888
      objectReference: {fileID: 0}
    - target: {fileID: 4739574486837986, guid: b0622c7c0ff092b46a37f31c718c5eba, type: 3}
      propertyPath: m_LocalPosition.z
      value: -3.4706235
      objectReference: {fileID: 0}
    - target: {fileID: 4739574486837986, guid: b0622c7c0ff092b46a37f31c718c5eba, type: 3}
      propertyPath: m_LocalRotation.x
      value: -0.7071068
      objectReference: {fileID: 0}
    - target: {fileID: 4739574486837986, guid: b0622c7c0ff092b46a37f31c718c5eba, type: 3}
      propertyPath: m_LocalRotation.y
      value: -0
      objectReference: {fileID: 0}
    - target: {fileID: 4739574486837986, guid: b0622c7c0ff092b46a37f31c718c5eba, type: 3}
      propertyPath: m_LocalRotation.z
      value: -0
      objectReference: {fileID: 0}
    - target: {fileID: 4739574486837986, guid: b0622c7c0ff092b46a37f31c718c5eba, type: 3}
      propertyPath: m_LocalRotation.w
      value: 0.7071068
      objectReference: {fileID: 0}
    - target: {fileID: 4739574486837986, guid: b0622c7c0ff092b46a37f31c718c5eba, type: 3}
      propertyPath: m_RootOrder
      value: 9
      objectReference: {fileID: 0}
    - target: {fileID: 4739574486837986, guid: b0622c7c0ff092b46a37f31c718c5eba, type: 3}
      propertyPath: m_LocalScale.y
      value: 1
      objectReference: {fileID: 0}
    - target: {fileID: 4739574486837986, guid: b0622c7c0ff092b46a37f31c718c5eba, type: 3}
      propertyPath: m_LocalScale.z
      value: 1
      objectReference: {fileID: 0}
    m_RemovedComponents: []
  m_SourcePrefab: {fileID: 100100000, guid: b0622c7c0ff092b46a37f31c718c5eba, type: 3}
--- !u!4 &821686574 stripped
Transform:
  m_CorrespondingSourceObject: {fileID: 4739574486837986, guid: b0622c7c0ff092b46a37f31c718c5eba,
    type: 3}
  m_PrefabInstance: {fileID: 821686573}
  m_PrefabAsset: {fileID: 0}
--- !u!1001 &899880726
PrefabInstance:
  m_ObjectHideFlags: 0
  serializedVersion: 2
  m_Modification:
    m_TransformParent: {fileID: 190659020}
    m_Modifications:
    - target: {fileID: 1593950697155818, guid: d2cd02263a1e8084abf81f1324b929be, type: 3}
      propertyPath: m_Name
      value: LowPoly - FirTree B (7)
      objectReference: {fileID: 0}
    - target: {fileID: 1593950697155818, guid: d2cd02263a1e8084abf81f1324b929be, type: 3}
      propertyPath: m_StaticEditorFlags
      value: 4294967295
      objectReference: {fileID: 0}
    - target: {fileID: 4870204933709518, guid: d2cd02263a1e8084abf81f1324b929be, type: 3}
      propertyPath: m_LocalPosition.x
      value: 1.7249174
      objectReference: {fileID: 0}
    - target: {fileID: 4870204933709518, guid: d2cd02263a1e8084abf81f1324b929be, type: 3}
      propertyPath: m_LocalPosition.y
      value: 3.286547
      objectReference: {fileID: 0}
    - target: {fileID: 4870204933709518, guid: d2cd02263a1e8084abf81f1324b929be, type: 3}
      propertyPath: m_LocalPosition.z
      value: 11.545718
      objectReference: {fileID: 0}
    - target: {fileID: 4870204933709518, guid: d2cd02263a1e8084abf81f1324b929be, type: 3}
      propertyPath: m_LocalRotation.x
      value: -0.70394385
      objectReference: {fileID: 0}
    - target: {fileID: 4870204933709518, guid: d2cd02263a1e8084abf81f1324b929be, type: 3}
      propertyPath: m_LocalRotation.y
      value: -0.13434333
      objectReference: {fileID: 0}
    - target: {fileID: 4870204933709518, guid: d2cd02263a1e8084abf81f1324b929be, type: 3}
      propertyPath: m_LocalRotation.z
      value: -0.10358276
      objectReference: {fileID: 0}
    - target: {fileID: 4870204933709518, guid: d2cd02263a1e8084abf81f1324b929be, type: 3}
      propertyPath: m_LocalRotation.w
      value: 0.6896996
      objectReference: {fileID: 0}
    - target: {fileID: 4870204933709518, guid: d2cd02263a1e8084abf81f1324b929be, type: 3}
      propertyPath: m_RootOrder
      value: 18
      objectReference: {fileID: 0}
    - target: {fileID: 4870204933709518, guid: d2cd02263a1e8084abf81f1324b929be, type: 3}
      propertyPath: m_LocalScale.x
      value: 0.7418554
      objectReference: {fileID: 0}
    - target: {fileID: 4870204933709518, guid: d2cd02263a1e8084abf81f1324b929be, type: 3}
      propertyPath: m_LocalScale.y
      value: 0.77626115
      objectReference: {fileID: 0}
    - target: {fileID: 4870204933709518, guid: d2cd02263a1e8084abf81f1324b929be, type: 3}
      propertyPath: m_LocalScale.z
      value: 0.83
      objectReference: {fileID: 0}
    m_RemovedComponents: []
  m_SourcePrefab: {fileID: 100100000, guid: d2cd02263a1e8084abf81f1324b929be, type: 3}
--- !u!4 &899880727 stripped
Transform:
  m_CorrespondingSourceObject: {fileID: 4870204933709518, guid: d2cd02263a1e8084abf81f1324b929be,
    type: 3}
  m_PrefabInstance: {fileID: 899880726}
  m_PrefabAsset: {fileID: 0}
--- !u!1001 &964280451
PrefabInstance:
  m_ObjectHideFlags: 0
  serializedVersion: 2
  m_Modification:
    m_TransformParent: {fileID: 190659020}
    m_Modifications:
    - target: {fileID: 1593950697155818, guid: d2cd02263a1e8084abf81f1324b929be, type: 3}
      propertyPath: m_Name
      value: LowPoly - FirTree B (11)
      objectReference: {fileID: 0}
    - target: {fileID: 1593950697155818, guid: d2cd02263a1e8084abf81f1324b929be, type: 3}
      propertyPath: m_StaticEditorFlags
      value: 4294967295
      objectReference: {fileID: 0}
    - target: {fileID: 4870204933709518, guid: d2cd02263a1e8084abf81f1324b929be, type: 3}
      propertyPath: m_LocalPosition.x
      value: 5.1
      objectReference: {fileID: 0}
    - target: {fileID: 4870204933709518, guid: d2cd02263a1e8084abf81f1324b929be, type: 3}
      propertyPath: m_LocalPosition.y
      value: 3.04
      objectReference: {fileID: 0}
    - target: {fileID: 4870204933709518, guid: d2cd02263a1e8084abf81f1324b929be, type: 3}
      propertyPath: m_LocalPosition.z
      value: -0.78
      objectReference: {fileID: 0}
    - target: {fileID: 4870204933709518, guid: d2cd02263a1e8084abf81f1324b929be, type: 3}
      propertyPath: m_LocalRotation.x
      value: -0.5919493
      objectReference: {fileID: 0}
    - target: {fileID: 4870204933709518, guid: d2cd02263a1e8084abf81f1324b929be, type: 3}
      propertyPath: m_LocalRotation.y
      value: 0.40395686
      objectReference: {fileID: 0}
    - target: {fileID: 4870204933709518, guid: d2cd02263a1e8084abf81f1324b929be, type: 3}
      propertyPath: m_LocalRotation.z
      value: 0.41557178
      objectReference: {fileID: 0}
    - target: {fileID: 4870204933709518, guid: d2cd02263a1e8084abf81f1324b929be, type: 3}
      propertyPath: m_LocalRotation.w
      value: 0.5601027
      objectReference: {fileID: 0}
    - target: {fileID: 4870204933709518, guid: d2cd02263a1e8084abf81f1324b929be, type: 3}
      propertyPath: m_RootOrder
      value: 22
      objectReference: {fileID: 0}
    - target: {fileID: 4870204933709518, guid: d2cd02263a1e8084abf81f1324b929be, type: 3}
      propertyPath: m_LocalEulerAnglesHint.z
      value: 15.388992
      objectReference: {fileID: 0}
    - target: {fileID: 4870204933709518, guid: d2cd02263a1e8084abf81f1324b929be, type: 3}
      propertyPath: m_LocalEulerAnglesHint.y
      value: 55.463997
      objectReference: {fileID: 0}
    - target: {fileID: 4870204933709518, guid: d2cd02263a1e8084abf81f1324b929be, type: 3}
      propertyPath: m_LocalScale.y
      value: 0.9352501
      objectReference: {fileID: 0}
    - target: {fileID: 4870204933709518, guid: d2cd02263a1e8084abf81f1324b929be, type: 3}
      propertyPath: m_LocalScale.x
      value: 0.8938002
      objectReference: {fileID: 0}
    - target: {fileID: 4870204933709518, guid: d2cd02263a1e8084abf81f1324b929be, type: 3}
      propertyPath: m_LocalScale.z
      value: 1.0000002
      objectReference: {fileID: 0}
    m_RemovedComponents: []
  m_SourcePrefab: {fileID: 100100000, guid: d2cd02263a1e8084abf81f1324b929be, type: 3}
--- !u!4 &964280452 stripped
Transform:
  m_CorrespondingSourceObject: {fileID: 4870204933709518, guid: d2cd02263a1e8084abf81f1324b929be,
    type: 3}
  m_PrefabInstance: {fileID: 964280451}
  m_PrefabAsset: {fileID: 0}
--- !u!1001 &1028935022
PrefabInstance:
  m_ObjectHideFlags: 0
  serializedVersion: 2
  m_Modification:
    m_TransformParent: {fileID: 190659020}
    m_Modifications:
    - target: {fileID: 1051545866392792, guid: dd3ee0c97aab8a7498c9292f3482f60b, type: 3}
      propertyPath: m_StaticEditorFlags
      value: 4294967295
      objectReference: {fileID: 0}
    - target: {fileID: 1051545866392792, guid: dd3ee0c97aab8a7498c9292f3482f60b, type: 3}
      propertyPath: m_Name
      value: LowPoly - Fence A (1)
      objectReference: {fileID: 0}
    - target: {fileID: 4622981333497442, guid: dd3ee0c97aab8a7498c9292f3482f60b, type: 3}
      propertyPath: m_LocalPosition.x
      value: -12.083
      objectReference: {fileID: 0}
    - target: {fileID: 4622981333497442, guid: dd3ee0c97aab8a7498c9292f3482f60b, type: 3}
      propertyPath: m_LocalPosition.y
      value: 2.797
      objectReference: {fileID: 0}
    - target: {fileID: 4622981333497442, guid: dd3ee0c97aab8a7498c9292f3482f60b, type: 3}
      propertyPath: m_LocalPosition.z
      value: 6.024
      objectReference: {fileID: 0}
    - target: {fileID: 4622981333497442, guid: dd3ee0c97aab8a7498c9292f3482f60b, type: 3}
      propertyPath: m_LocalRotation.x
      value: 0.6283024
      objectReference: {fileID: 0}
    - target: {fileID: 4622981333497442, guid: dd3ee0c97aab8a7498c9292f3482f60b, type: 3}
      propertyPath: m_LocalRotation.y
      value: -0.3943238
      objectReference: {fileID: 0}
    - target: {fileID: 4622981333497442, guid: dd3ee0c97aab8a7498c9292f3482f60b, type: 3}
      propertyPath: m_LocalRotation.z
      value: -0.38242626
      objectReference: {fileID: 0}
    - target: {fileID: 4622981333497442, guid: dd3ee0c97aab8a7498c9292f3482f60b, type: 3}
      propertyPath: m_LocalRotation.w
      value: -0.5509039
      objectReference: {fileID: 0}
    - target: {fileID: 4622981333497442, guid: dd3ee0c97aab8a7498c9292f3482f60b, type: 3}
      propertyPath: m_RootOrder
      value: 28
      objectReference: {fileID: 0}
    - target: {fileID: 4622981333497442, guid: dd3ee0c97aab8a7498c9292f3482f60b, type: 3}
      propertyPath: m_LocalEulerAnglesHint.x
      value: -96.348
      objectReference: {fileID: 0}
    - target: {fileID: 4622981333497442, guid: dd3ee0c97aab8a7498c9292f3482f60b, type: 3}
      propertyPath: m_LocalEulerAnglesHint.z
      value: -317.888
      objectReference: {fileID: 0}
    - target: {fileID: 4622981333497442, guid: dd3ee0c97aab8a7498c9292f3482f60b, type: 3}
      propertyPath: m_LocalScale.y
      value: 1.0000005
      objectReference: {fileID: 0}
    - target: {fileID: 4622981333497442, guid: dd3ee0c97aab8a7498c9292f3482f60b, type: 3}
      propertyPath: m_LocalScale.z
      value: 1.0000005
      objectReference: {fileID: 0}
    - target: {fileID: 4622981333497442, guid: dd3ee0c97aab8a7498c9292f3482f60b, type: 3}
      propertyPath: m_LocalEulerAnglesHint.y
      value: 24.633987
      objectReference: {fileID: 0}
    m_RemovedComponents: []
  m_SourcePrefab: {fileID: 100100000, guid: dd3ee0c97aab8a7498c9292f3482f60b, type: 3}
--- !u!4 &1028935023 stripped
Transform:
  m_CorrespondingSourceObject: {fileID: 4622981333497442, guid: dd3ee0c97aab8a7498c9292f3482f60b,
    type: 3}
  m_PrefabInstance: {fileID: 1028935022}
  m_PrefabAsset: {fileID: 0}
--- !u!1001 &1076026796
PrefabInstance:
  m_ObjectHideFlags: 0
  serializedVersion: 2
  m_Modification:
    m_TransformParent: {fileID: 190659020}
    m_Modifications:
    - target: {fileID: 1593950697155818, guid: d2cd02263a1e8084abf81f1324b929be, type: 3}
      propertyPath: m_StaticEditorFlags
      value: 4294967295
      objectReference: {fileID: 0}
    - target: {fileID: 4870204933709518, guid: d2cd02263a1e8084abf81f1324b929be, type: 3}
      propertyPath: m_LocalPosition.x
      value: 3.2448368
      objectReference: {fileID: 0}
    - target: {fileID: 4870204933709518, guid: d2cd02263a1e8084abf81f1324b929be, type: 3}
      propertyPath: m_LocalPosition.y
      value: 2.852077
      objectReference: {fileID: 0}
    - target: {fileID: 4870204933709518, guid: d2cd02263a1e8084abf81f1324b929be, type: 3}
      propertyPath: m_LocalPosition.z
      value: 3.215718
      objectReference: {fileID: 0}
    - target: {fileID: 4870204933709518, guid: d2cd02263a1e8084abf81f1324b929be, type: 3}
      propertyPath: m_LocalRotation.x
      value: -0.6282305
      objectReference: {fileID: 0}
    - target: {fileID: 4870204933709518, guid: d2cd02263a1e8084abf81f1324b929be, type: 3}
      propertyPath: m_LocalRotation.y
      value: -0.34483552
      objectReference: {fileID: 0}
    - target: {fileID: 4870204933709518, guid: d2cd02263a1e8084abf81f1324b929be, type: 3}
      propertyPath: m_LocalRotation.z
      value: -0.31118172
      objectReference: {fileID: 0}
    - target: {fileID: 4870204933709518, guid: d2cd02263a1e8084abf81f1324b929be, type: 3}
      propertyPath: m_LocalRotation.w
      value: 0.62416416
      objectReference: {fileID: 0}
    - target: {fileID: 4870204933709518, guid: d2cd02263a1e8084abf81f1324b929be, type: 3}
      propertyPath: m_RootOrder
      value: 26
      objectReference: {fileID: 0}
    - target: {fileID: 4870204933709518, guid: d2cd02263a1e8084abf81f1324b929be, type: 3}
      propertyPath: m_LocalEulerAnglesHint.z
      value: -110.756
      objectReference: {fileID: 0}
    - target: {fileID: 4870204933709518, guid: d2cd02263a1e8084abf81f1324b929be, type: 3}
      propertyPath: m_LocalScale.x
      value: 1.1097645
      objectReference: {fileID: 0}
    - target: {fileID: 4870204933709518, guid: d2cd02263a1e8084abf81f1324b929be, type: 3}
      propertyPath: m_LocalScale.y
      value: 1.1612334
      objectReference: {fileID: 0}
    - target: {fileID: 4870204933709518, guid: d2cd02263a1e8084abf81f1324b929be, type: 3}
      propertyPath: m_LocalScale.z
      value: 1.2416229
      objectReference: {fileID: 0}
    m_RemovedComponents: []
  m_SourcePrefab: {fileID: 100100000, guid: d2cd02263a1e8084abf81f1324b929be, type: 3}
--- !u!4 &1076026797 stripped
Transform:
  m_CorrespondingSourceObject: {fileID: 4870204933709518, guid: d2cd02263a1e8084abf81f1324b929be,
    type: 3}
  m_PrefabInstance: {fileID: 1076026796}
  m_PrefabAsset: {fileID: 0}
--- !u!1001 &1190695447
PrefabInstance:
  m_ObjectHideFlags: 0
  serializedVersion: 2
  m_Modification:
    m_TransformParent: {fileID: 190659020}
    m_Modifications:
    - target: {fileID: 1593950697155818, guid: d2cd02263a1e8084abf81f1324b929be, type: 3}
      propertyPath: m_Name
      value: LowPoly - FirTree B (9)
      objectReference: {fileID: 0}
    - target: {fileID: 1593950697155818, guid: d2cd02263a1e8084abf81f1324b929be, type: 3}
      propertyPath: m_StaticEditorFlags
      value: 4294967295
      objectReference: {fileID: 0}
    - target: {fileID: 4870204933709518, guid: d2cd02263a1e8084abf81f1324b929be, type: 3}
      propertyPath: m_LocalPosition.x
      value: -0.8951626
      objectReference: {fileID: 0}
    - target: {fileID: 4870204933709518, guid: d2cd02263a1e8084abf81f1324b929be, type: 3}
      propertyPath: m_LocalPosition.y
      value: 3.122077
      objectReference: {fileID: 0}
    - target: {fileID: 4870204933709518, guid: d2cd02263a1e8084abf81f1324b929be, type: 3}
      propertyPath: m_LocalPosition.z
      value: 15.505718
      objectReference: {fileID: 0}
    - target: {fileID: 4870204933709518, guid: d2cd02263a1e8084abf81f1324b929be, type: 3}
      propertyPath: m_LocalRotation.x
      value: -0.70394385
      objectReference: {fileID: 0}
    - target: {fileID: 4870204933709518, guid: d2cd02263a1e8084abf81f1324b929be, type: 3}
      propertyPath: m_LocalRotation.y
      value: -0.13434333
      objectReference: {fileID: 0}
    - target: {fileID: 4870204933709518, guid: d2cd02263a1e8084abf81f1324b929be, type: 3}
      propertyPath: m_LocalRotation.z
      value: -0.10358276
      objectReference: {fileID: 0}
    - target: {fileID: 4870204933709518, guid: d2cd02263a1e8084abf81f1324b929be, type: 3}
      propertyPath: m_LocalRotation.w
      value: 0.6896996
      objectReference: {fileID: 0}
    - target: {fileID: 4870204933709518, guid: d2cd02263a1e8084abf81f1324b929be, type: 3}
      propertyPath: m_RootOrder
      value: 16
      objectReference: {fileID: 0}
    - target: {fileID: 4870204933709518, guid: d2cd02263a1e8084abf81f1324b929be, type: 3}
      propertyPath: m_LocalScale.x
      value: 1.0226362
      objectReference: {fileID: 0}
    - target: {fileID: 4870204933709518, guid: d2cd02263a1e8084abf81f1324b929be, type: 3}
      propertyPath: m_LocalScale.y
      value: 1.0700641
      objectReference: {fileID: 0}
    - target: {fileID: 4870204933709518, guid: d2cd02263a1e8084abf81f1324b929be, type: 3}
      propertyPath: m_LocalScale.z
      value: 1.1441422
      objectReference: {fileID: 0}
    m_RemovedComponents: []
  m_SourcePrefab: {fileID: 100100000, guid: d2cd02263a1e8084abf81f1324b929be, type: 3}
--- !u!4 &1190695448 stripped
Transform:
  m_CorrespondingSourceObject: {fileID: 4870204933709518, guid: d2cd02263a1e8084abf81f1324b929be,
    type: 3}
  m_PrefabInstance: {fileID: 1190695447}
  m_PrefabAsset: {fileID: 0}
--- !u!1001 &1200616501
PrefabInstance:
  m_ObjectHideFlags: 0
  serializedVersion: 2
  m_Modification:
    m_TransformParent: {fileID: 190659020}
    m_Modifications:
    - target: {fileID: 1593950697155818, guid: d2cd02263a1e8084abf81f1324b929be, type: 3}
      propertyPath: m_Name
      value: LowPoly - FirTree B (13)
      objectReference: {fileID: 0}
    - target: {fileID: 1593950697155818, guid: d2cd02263a1e8084abf81f1324b929be, type: 3}
      propertyPath: m_StaticEditorFlags
      value: 4294967295
      objectReference: {fileID: 0}
    - target: {fileID: 4870204933709518, guid: d2cd02263a1e8084abf81f1324b929be, type: 3}
      propertyPath: m_LocalPosition.x
      value: 6.29
      objectReference: {fileID: 0}
    - target: {fileID: 4870204933709518, guid: d2cd02263a1e8084abf81f1324b929be, type: 3}
      propertyPath: m_LocalPosition.y
      value: 2.79
      objectReference: {fileID: 0}
    - target: {fileID: 4870204933709518, guid: d2cd02263a1e8084abf81f1324b929be, type: 3}
      propertyPath: m_LocalPosition.z
      value: 10.01
      objectReference: {fileID: 0}
    - target: {fileID: 4870204933709518, guid: d2cd02263a1e8084abf81f1324b929be, type: 3}
      propertyPath: m_LocalRotation.x
      value: -0.70868117
      objectReference: {fileID: 0}
    - target: {fileID: 4870204933709518, guid: d2cd02263a1e8084abf81f1324b929be, type: 3}
      propertyPath: m_LocalRotation.y
      value: -0.12932624
      objectReference: {fileID: 0}
    - target: {fileID: 4870204933709518, guid: d2cd02263a1e8084abf81f1324b929be, type: 3}
      propertyPath: m_LocalRotation.z
      value: -0.14448112
      objectReference: {fileID: 0}
    - target: {fileID: 4870204933709518, guid: d2cd02263a1e8084abf81f1324b929be, type: 3}
      propertyPath: m_LocalRotation.w
      value: 0.6783591
      objectReference: {fileID: 0}
    - target: {fileID: 4870204933709518, guid: d2cd02263a1e8084abf81f1324b929be, type: 3}
      propertyPath: m_RootOrder
      value: 23
      objectReference: {fileID: 0}
    - target: {fileID: 4870204933709518, guid: d2cd02263a1e8084abf81f1324b929be, type: 3}
      propertyPath: m_LocalEulerAnglesHint.z
      value: 15.388992
      objectReference: {fileID: 0}
    - target: {fileID: 4870204933709518, guid: d2cd02263a1e8084abf81f1324b929be, type: 3}
      propertyPath: m_LocalEulerAnglesHint.y
      value: -37.722992
      objectReference: {fileID: 0}
    - target: {fileID: 4870204933709518, guid: d2cd02263a1e8084abf81f1324b929be, type: 3}
      propertyPath: m_LocalScale.y
      value: 0.76754314
      objectReference: {fileID: 0}
    - target: {fileID: 4870204933709518, guid: d2cd02263a1e8084abf81f1324b929be, type: 3}
      propertyPath: m_LocalScale.x
      value: 0.7335325
      objectReference: {fileID: 0}
    - target: {fileID: 4870204933709518, guid: d2cd02263a1e8084abf81f1324b929be, type: 3}
      propertyPath: m_LocalScale.z
      value: 0.82069
      objectReference: {fileID: 0}
    m_RemovedComponents: []
  m_SourcePrefab: {fileID: 100100000, guid: d2cd02263a1e8084abf81f1324b929be, type: 3}
--- !u!4 &1200616502 stripped
Transform:
  m_CorrespondingSourceObject: {fileID: 4870204933709518, guid: d2cd02263a1e8084abf81f1324b929be,
    type: 3}
  m_PrefabInstance: {fileID: 1200616501}
  m_PrefabAsset: {fileID: 0}
--- !u!1001 &1274041935
PrefabInstance:
  m_ObjectHideFlags: 0
  serializedVersion: 2
  m_Modification:
    m_TransformParent: {fileID: 190659020}
    m_Modifications:
    - target: {fileID: 1593950697155818, guid: d2cd02263a1e8084abf81f1324b929be, type: 3}
      propertyPath: m_Name
      value: LowPoly - FirTree B (15)
      objectReference: {fileID: 0}
    - target: {fileID: 1593950697155818, guid: d2cd02263a1e8084abf81f1324b929be, type: 3}
      propertyPath: m_StaticEditorFlags
      value: 4294967295
      objectReference: {fileID: 0}
    - target: {fileID: 4870204933709518, guid: d2cd02263a1e8084abf81f1324b929be, type: 3}
      propertyPath: m_LocalPosition.x
      value: -4.35
      objectReference: {fileID: 0}
    - target: {fileID: 4870204933709518, guid: d2cd02263a1e8084abf81f1324b929be, type: 3}
      propertyPath: m_LocalPosition.y
      value: 2.73
      objectReference: {fileID: 0}
    - target: {fileID: 4870204933709518, guid: d2cd02263a1e8084abf81f1324b929be, type: 3}
      propertyPath: m_LocalPosition.z
      value: 10.16
      objectReference: {fileID: 0}
    - target: {fileID: 4870204933709518, guid: d2cd02263a1e8084abf81f1324b929be, type: 3}
      propertyPath: m_LocalRotation.x
      value: -0.70394385
      objectReference: {fileID: 0}
    - target: {fileID: 4870204933709518, guid: d2cd02263a1e8084abf81f1324b929be, type: 3}
      propertyPath: m_LocalRotation.y
      value: -0.13434333
      objectReference: {fileID: 0}
    - target: {fileID: 4870204933709518, guid: d2cd02263a1e8084abf81f1324b929be, type: 3}
      propertyPath: m_LocalRotation.z
      value: -0.10358276
      objectReference: {fileID: 0}
    - target: {fileID: 4870204933709518, guid: d2cd02263a1e8084abf81f1324b929be, type: 3}
      propertyPath: m_LocalRotation.w
      value: 0.6896996
      objectReference: {fileID: 0}
    - target: {fileID: 4870204933709518, guid: d2cd02263a1e8084abf81f1324b929be, type: 3}
      propertyPath: m_RootOrder
      value: 25
      objectReference: {fileID: 0}
    - target: {fileID: 4870204933709518, guid: d2cd02263a1e8084abf81f1324b929be, type: 3}
      propertyPath: m_LocalScale.x
      value: 0.74186
      objectReference: {fileID: 0}
    - target: {fileID: 4870204933709518, guid: d2cd02263a1e8084abf81f1324b929be, type: 3}
      propertyPath: m_LocalScale.y
      value: 0.77625996
      objectReference: {fileID: 0}
    - target: {fileID: 4870204933709518, guid: d2cd02263a1e8084abf81f1324b929be, type: 3}
      propertyPath: m_LocalScale.z
      value: 0.83
      objectReference: {fileID: 0}
    m_RemovedComponents: []
  m_SourcePrefab: {fileID: 100100000, guid: d2cd02263a1e8084abf81f1324b929be, type: 3}
--- !u!4 &1274041936 stripped
Transform:
  m_CorrespondingSourceObject: {fileID: 4870204933709518, guid: d2cd02263a1e8084abf81f1324b929be,
    type: 3}
  m_PrefabInstance: {fileID: 1274041935}
  m_PrefabAsset: {fileID: 0}
--- !u!1 &1349242039
GameObject:
  m_ObjectHideFlags: 0
  m_CorrespondingSourceObject: {fileID: 0}
  m_PrefabInstance: {fileID: 0}
  m_PrefabAsset: {fileID: 0}
  serializedVersion: 6
  m_Component:
  - component: {fileID: 1349242041}
  - component: {fileID: 1349242040}
  m_Layer: 0
  m_Name: Directional Light
  m_TagString: Untagged
  m_Icon: {fileID: 0}
  m_NavMeshLayer: 0
  m_StaticEditorFlags: 0
  m_IsActive: 1
--- !u!108 &1349242040
Light:
  m_ObjectHideFlags: 0
  m_CorrespondingSourceObject: {fileID: 0}
  m_PrefabInstance: {fileID: 0}
  m_PrefabAsset: {fileID: 0}
  m_GameObject: {fileID: 1349242039}
  m_Enabled: 1
  serializedVersion: 10
  m_Type: 1
  m_Shape: 0
  m_Color: {r: 0.26379493, g: 0.40115762, b: 0.9811321, a: 1}
  m_Intensity: 1.2
  m_Range: 10
  m_SpotAngle: 30
  m_InnerSpotAngle: 21.80208
  m_CookieSize: 10
  m_Shadows:
    m_Type: 2
    m_Resolution: 3
    m_CustomResolution: -1
    m_Strength: 1
    m_Bias: 0.05
    m_NormalBias: 0.4
    m_NearPlane: 0.2
    m_CullingMatrixOverride:
      e00: 1
      e01: 0
      e02: 0
      e03: 0
      e10: 0
      e11: 1
      e12: 0
      e13: 0
      e20: 0
      e21: 0
      e22: 1
      e23: 0
      e30: 0
      e31: 0
      e32: 0
      e33: 1
    m_UseCullingMatrixOverride: 0
  m_Cookie: {fileID: 0}
  m_DrawHalo: 0
  m_Flare: {fileID: 0}
  m_RenderMode: 0
  m_CullingMask:
    serializedVersion: 2
    m_Bits: 4294967295
  m_RenderingLayerMask: 1
  m_Lightmapping: 4
  m_LightShadowCasterMode: 0
  m_AreaSize: {x: 1, y: 1}
  m_BounceIntensity: 1
  m_ColorTemperature: 6570
  m_UseColorTemperature: 0
  m_BoundingSphereOverride: {x: 0, y: 0, z: 0, w: 0}
  m_UseBoundingSphereOverride: 0
  m_ShadowRadius: 0
  m_ShadowAngle: 0
--- !u!4 &1349242041
Transform:
  m_ObjectHideFlags: 0
  m_CorrespondingSourceObject: {fileID: 0}
  m_PrefabInstance: {fileID: 0}
  m_PrefabAsset: {fileID: 0}
  m_GameObject: {fileID: 1349242039}
  m_LocalRotation: {x: 0.17250393, y: -0.5262795, z: 0.16878895, w: 0.81534195}
  m_LocalPosition: {x: 0, y: 3, z: 0}
  m_LocalScale: {x: 1, y: 1, z: 1}
  m_Children: []
  m_Father: {fileID: 0}
  m_RootOrder: 1
  m_LocalEulerAnglesHint: {x: 27.320002, y: -64.21, z: 6.0520005}
--- !u!1001 &1463404878
PrefabInstance:
  m_ObjectHideFlags: 0
  serializedVersion: 2
  m_Modification:
    m_TransformParent: {fileID: 190659020}
    m_Modifications:
    - target: {fileID: 1927372005322154, guid: 39de80c7e7a1a2942820576875608e5d, type: 3}
      propertyPath: m_Name
      value: LowPoly - Rock A (2)
      objectReference: {fileID: 0}
    - target: {fileID: 1927372005322154, guid: 39de80c7e7a1a2942820576875608e5d, type: 3}
      propertyPath: m_StaticEditorFlags
      value: 4294967295
      objectReference: {fileID: 0}
    - target: {fileID: 4838067341564878, guid: 39de80c7e7a1a2942820576875608e5d, type: 3}
      propertyPath: m_LocalPosition.x
      value: -13.917766
      objectReference: {fileID: 0}
    - target: {fileID: 4838067341564878, guid: 39de80c7e7a1a2942820576875608e5d, type: 3}
      propertyPath: m_LocalPosition.y
      value: 2.892077
      objectReference: {fileID: 0}
    - target: {fileID: 4838067341564878, guid: 39de80c7e7a1a2942820576875608e5d, type: 3}
      propertyPath: m_LocalPosition.z
      value: -0.39782476
      objectReference: {fileID: 0}
    - target: {fileID: 4838067341564878, guid: 39de80c7e7a1a2942820576875608e5d, type: 3}
      propertyPath: m_LocalRotation.x
      value: -0.7071068
      objectReference: {fileID: 0}
    - target: {fileID: 4838067341564878, guid: 39de80c7e7a1a2942820576875608e5d, type: 3}
      propertyPath: m_LocalRotation.y
      value: -0
      objectReference: {fileID: 0}
    - target: {fileID: 4838067341564878, guid: 39de80c7e7a1a2942820576875608e5d, type: 3}
      propertyPath: m_LocalRotation.z
      value: -0
      objectReference: {fileID: 0}
    - target: {fileID: 4838067341564878, guid: 39de80c7e7a1a2942820576875608e5d, type: 3}
      propertyPath: m_LocalRotation.w
      value: 0.7071068
      objectReference: {fileID: 0}
    - target: {fileID: 4838067341564878, guid: 39de80c7e7a1a2942820576875608e5d, type: 3}
      propertyPath: m_RootOrder
      value: 8
      objectReference: {fileID: 0}
    - target: {fileID: 4838067341564878, guid: 39de80c7e7a1a2942820576875608e5d, type: 3}
      propertyPath: m_LocalScale.y
      value: 1
      objectReference: {fileID: 0}
    - target: {fileID: 4838067341564878, guid: 39de80c7e7a1a2942820576875608e5d, type: 3}
      propertyPath: m_LocalScale.z
      value: 1
      objectReference: {fileID: 0}
    m_RemovedComponents: []
  m_SourcePrefab: {fileID: 100100000, guid: 39de80c7e7a1a2942820576875608e5d, type: 3}
--- !u!4 &1463404879 stripped
Transform:
  m_CorrespondingSourceObject: {fileID: 4838067341564878, guid: 39de80c7e7a1a2942820576875608e5d,
    type: 3}
  m_PrefabInstance: {fileID: 1463404878}
  m_PrefabAsset: {fileID: 0}
--- !u!1 &1480377163
GameObject:
  m_ObjectHideFlags: 0
  m_CorrespondingSourceObject: {fileID: 0}
  m_PrefabInstance: {fileID: 0}
  m_PrefabAsset: {fileID: 0}
  serializedVersion: 6
  m_Component:
  - component: {fileID: 1480377168}
  - component: {fileID: 1480377167}
  - component: {fileID: 1480377165}
  - component: {fileID: 1480377164}
  m_Layer: 1
  m_Name: Main Camera
  m_TagString: MainCamera
  m_Icon: {fileID: 0}
  m_NavMeshLayer: 0
  m_StaticEditorFlags: 0
  m_IsActive: 1
--- !u!114 &1480377164
MonoBehaviour:
  m_ObjectHideFlags: 0
  m_CorrespondingSourceObject: {fileID: 0}
  m_PrefabInstance: {fileID: 0}
  m_PrefabAsset: {fileID: 0}
  m_GameObject: {fileID: 1480377163}
  m_Enabled: 1
  m_EditorHideFlags: 0
  m_Script: {fileID: 11500000, guid: 8b9a305e18de0c04dbd257a21cd47087, type: 3}
  m_Name: 
  m_EditorClassIdentifier: 
  sharedProfile: {fileID: 11400000, guid: 2c9ebc5b5de64494eb66e1f3eb755731, type: 2}
  isGlobal: 1
  blendDistance: 0
  weight: 1
  priority: 0
--- !u!114 &1480377165
MonoBehaviour:
  m_ObjectHideFlags: 0
  m_CorrespondingSourceObject: {fileID: 0}
  m_PrefabInstance: {fileID: 0}
  m_PrefabAsset: {fileID: 0}
  m_GameObject: {fileID: 1480377163}
  m_Enabled: 1
  m_EditorHideFlags: 0
  m_Script: {fileID: 11500000, guid: 948f4100a11a5c24981795d21301da5c, type: 3}
  m_Name: 
  m_EditorClassIdentifier: 
  volumeTrigger: {fileID: 1480377168}
  volumeLayer:
    serializedVersion: 2
    m_Bits: 2
  stopNaNPropagation: 1
  finalBlitToCameraTarget: 0
  antialiasingMode: 2
  temporalAntialiasing:
    jitterSpread: 0.75
    sharpness: 0.25
    stationaryBlending: 0.95
    motionBlending: 0.85
  subpixelMorphologicalAntialiasing:
    quality: 2
  fastApproximateAntialiasing:
    fastMode: 0
    keepAlpha: 0
  fog:
    enabled: 1
    excludeSkybox: 1
  debugLayer:
    lightMeter:
      width: 512
      height: 256
      showCurves: 1
    histogram:
      width: 512
      height: 256
      channel: 3
    waveform:
      exposure: 0.12
      height: 256
    vectorscope:
      size: 256
      exposure: 0.12
    overlaySettings:
      linearDepth: 0
      motionColorIntensity: 4
      motionGridSize: 64
      colorBlindnessType: 0
      colorBlindnessStrength: 1
  m_Resources: {fileID: 11400000, guid: d82512f9c8e5d4a4d938b575d47f88d4, type: 2}
  m_ShowToolkit: 0
  m_ShowCustomSorter: 0
  breakBeforeColorGrading: 0
  m_BeforeTransparentBundles: []
  m_BeforeStackBundles: []
  m_AfterStackBundles: []
--- !u!20 &1480377167
Camera:
  m_ObjectHideFlags: 0
  m_CorrespondingSourceObject: {fileID: 0}
  m_PrefabInstance: {fileID: 0}
  m_PrefabAsset: {fileID: 0}
  m_GameObject: {fileID: 1480377163}
  m_Enabled: 1
  serializedVersion: 2
  m_ClearFlags: 1
  m_BackGroundColor: {r: 0.19215687, g: 0.3019608, b: 0.4745098, a: 0}
  m_projectionMatrixMode: 1
  m_GateFitMode: 2
  m_FOVAxisMode: 0
  m_SensorSize: {x: 36, y: 24}
  m_LensShift: {x: 0, y: 0}
  m_FocalLength: 50
  m_NormalizedViewPortRect:
    serializedVersion: 2
    x: 0
    y: 0
    width: 1
    height: 1
  near clip plane: 0.3
  far clip plane: 1000
  field of view: 60
  orthographic: 0
  orthographic size: 5
  m_Depth: -1
  m_CullingMask:
    serializedVersion: 2
    m_Bits: 4294967295
  m_RenderingPath: -1
  m_TargetTexture: {fileID: 0}
  m_TargetDisplay: 0
  m_TargetEye: 3
  m_HDR: 1
  m_AllowMSAA: 1
  m_AllowDynamicResolution: 0
  m_ForceIntoRT: 1
  m_OcclusionCulling: 1
  m_StereoConvergence: 10
  m_StereoSeparation: 0.022
--- !u!4 &1480377168
Transform:
  m_ObjectHideFlags: 0
  m_CorrespondingSourceObject: {fileID: 0}
  m_PrefabInstance: {fileID: 0}
  m_PrefabAsset: {fileID: 0}
  m_GameObject: {fileID: 1480377163}
  m_LocalRotation: {x: -0.014324265, y: 0.9792869, z: 0.0747568, w: 0.18762589}
  m_LocalPosition: {x: -3.8, y: 2.1, z: 6.5}
  m_LocalScale: {x: 1, y: 1, z: 1}
  m_Children: []
  m_Father: {fileID: 0}
  m_RootOrder: 0
  m_LocalEulerAnglesHint: {x: -14.344001, y: 183.62099, z: 2.6130002}
--- !u!1001 &1481245355
PrefabInstance:
  m_ObjectHideFlags: 0
  serializedVersion: 2
  m_Modification:
    m_TransformParent: {fileID: 190659020}
    m_Modifications:
    - target: {fileID: 100000, guid: f3dd2dace832efa4fa391170674edcc1, type: 3}
      propertyPath: m_StaticEditorFlags
      value: 4294967295
      objectReference: {fileID: 0}
    - target: {fileID: 400000, guid: f3dd2dace832efa4fa391170674edcc1, type: 3}
      propertyPath: m_LocalPosition.x
      value: -5.7351627
      objectReference: {fileID: 0}
    - target: {fileID: 400000, guid: f3dd2dace832efa4fa391170674edcc1, type: 3}
      propertyPath: m_LocalPosition.y
      value: 2.952077
      objectReference: {fileID: 0}
    - target: {fileID: 400000, guid: f3dd2dace832efa4fa391170674edcc1, type: 3}
      propertyPath: m_LocalPosition.z
      value: 4.415718
      objectReference: {fileID: 0}
    - target: {fileID: 400000, guid: f3dd2dace832efa4fa391170674edcc1, type: 3}
      propertyPath: m_LocalRotation.x
      value: 0.000000021855694
      objectReference: {fileID: 0}
    - target: {fileID: 400000, guid: f3dd2dace832efa4fa391170674edcc1, type: 3}
      propertyPath: m_LocalRotation.y
      value: -0
      objectReference: {fileID: 0}
    - target: {fileID: 400000, guid: f3dd2dace832efa4fa391170674edcc1, type: 3}
      propertyPath: m_LocalRotation.z
      value: -0
      objectReference: {fileID: 0}
    - target: {fileID: 400000, guid: f3dd2dace832efa4fa391170674edcc1, type: 3}
      propertyPath: m_LocalRotation.w
      value: 1
      objectReference: {fileID: 0}
    - target: {fileID: 400000, guid: f3dd2dace832efa4fa391170674edcc1, type: 3}
      propertyPath: m_RootOrder
      value: 28
      objectReference: {fileID: 0}
    - target: {fileID: 2300000, guid: f3dd2dace832efa4fa391170674edcc1, type: 3}
      propertyPath: m_Materials.Array.data[0]
      value: 
      objectReference: {fileID: 2100000, guid: 2557d3f1d341fdb4e9d53179c053ffd5, type: 2}
    m_RemovedComponents: []
  m_SourcePrefab: {fileID: 100100000, guid: f3dd2dace832efa4fa391170674edcc1, type: 3}
--- !u!1 &1481245356 stripped
GameObject:
  m_CorrespondingSourceObject: {fileID: 100000, guid: f3dd2dace832efa4fa391170674edcc1,
    type: 3}
  m_PrefabInstance: {fileID: 1481245355}
  m_PrefabAsset: {fileID: 0}
--- !u!64 &1481245357
MeshCollider:
  m_ObjectHideFlags: 0
  m_CorrespondingSourceObject: {fileID: 0}
  m_PrefabInstance: {fileID: 0}
  m_PrefabAsset: {fileID: 0}
  m_GameObject: {fileID: 1481245356}
  m_Material: {fileID: 0}
  m_IsTrigger: 0
  m_Enabled: 1
  serializedVersion: 4
  m_Convex: 0
  m_CookingOptions: 30
  m_Mesh: {fileID: 4300000, guid: f3dd2dace832efa4fa391170674edcc1, type: 3}
--- !u!4 &1481245358 stripped
Transform:
  m_CorrespondingSourceObject: {fileID: 400000, guid: f3dd2dace832efa4fa391170674edcc1,
    type: 3}
  m_PrefabInstance: {fileID: 1481245355}
  m_PrefabAsset: {fileID: 0}
--- !u!1001 &1493008575
PrefabInstance:
  m_ObjectHideFlags: 0
  serializedVersion: 2
  m_Modification:
    m_TransformParent: {fileID: 190659020}
    m_Modifications:
    - target: {fileID: 1772052688877022, guid: b4974e3ae06d3d245a8353b888faed9d, type: 3}
      propertyPath: m_StaticEditorFlags
      value: 4294967295
      objectReference: {fileID: 0}
    - target: {fileID: 4026302497858488, guid: b4974e3ae06d3d245a8353b888faed9d, type: 3}
      propertyPath: m_LocalPosition.x
      value: 0.6948371
      objectReference: {fileID: 0}
    - target: {fileID: 4026302497858488, guid: b4974e3ae06d3d245a8353b888faed9d, type: 3}
      propertyPath: m_LocalPosition.y
      value: 2.8540769
      objectReference: {fileID: 0}
    - target: {fileID: 4026302497858488, guid: b4974e3ae06d3d245a8353b888faed9d, type: 3}
      propertyPath: m_LocalPosition.z
      value: 2.9857183
      objectReference: {fileID: 0}
    - target: {fileID: 4026302497858488, guid: b4974e3ae06d3d245a8353b888faed9d, type: 3}
      propertyPath: m_LocalRotation.x
      value: -0.520312
      objectReference: {fileID: 0}
    - target: {fileID: 4026302497858488, guid: b4974e3ae06d3d245a8353b888faed9d, type: 3}
      propertyPath: m_LocalRotation.y
      value: -0.4788272
      objectReference: {fileID: 0}
    - target: {fileID: 4026302497858488, guid: b4974e3ae06d3d245a8353b888faed9d, type: 3}
      propertyPath: m_LocalRotation.z
      value: -0.47882715
      objectReference: {fileID: 0}
    - target: {fileID: 4026302497858488, guid: b4974e3ae06d3d245a8353b888faed9d, type: 3}
      propertyPath: m_LocalRotation.w
      value: 0.52031195
      objectReference: {fileID: 0}
    - target: {fileID: 4026302497858488, guid: b4974e3ae06d3d245a8353b888faed9d, type: 3}
      propertyPath: m_RootOrder
      value: 1
      objectReference: {fileID: 0}
    - target: {fileID: 4026302497858488, guid: b4974e3ae06d3d245a8353b888faed9d, type: 3}
      propertyPath: m_LocalEulerAnglesHint.x
      value: -90.00001
      objectReference: {fileID: 0}
    - target: {fileID: 4026302497858488, guid: b4974e3ae06d3d245a8353b888faed9d, type: 3}
      propertyPath: m_LocalEulerAnglesHint.z
      value: -85.245
      objectReference: {fileID: 0}
    - target: {fileID: 4026302497858488, guid: b4974e3ae06d3d245a8353b888faed9d, type: 3}
      propertyPath: m_LocalScale.x
      value: 1
      objectReference: {fileID: 0}
    - target: {fileID: 4026302497858488, guid: b4974e3ae06d3d245a8353b888faed9d, type: 3}
      propertyPath: m_LocalScale.y
      value: 1
      objectReference: {fileID: 0}
    m_RemovedComponents: []
  m_SourcePrefab: {fileID: 100100000, guid: b4974e3ae06d3d245a8353b888faed9d, type: 3}
--- !u!4 &1493008576 stripped
Transform:
  m_CorrespondingSourceObject: {fileID: 4026302497858488, guid: b4974e3ae06d3d245a8353b888faed9d,
    type: 3}
  m_PrefabInstance: {fileID: 1493008575}
  m_PrefabAsset: {fileID: 0}
--- !u!1001 &1534577183
PrefabInstance:
  m_ObjectHideFlags: 0
  serializedVersion: 2
  m_Modification:
    m_TransformParent: {fileID: 190659020}
    m_Modifications:
    - target: {fileID: 1081485305171292, guid: c23a5db78ca1a5b4f921e0109f33128c, type: 3}
      propertyPath: m_Name
      value: LowPoly - Grass B (1)
      objectReference: {fileID: 0}
    - target: {fileID: 1081485305171292, guid: c23a5db78ca1a5b4f921e0109f33128c, type: 3}
      propertyPath: m_StaticEditorFlags
      value: 4294967295
      objectReference: {fileID: 0}
    - target: {fileID: 4526791939225540, guid: c23a5db78ca1a5b4f921e0109f33128c, type: 3}
      propertyPath: m_LocalPosition.x
      value: -1.6383076
      objectReference: {fileID: 0}
    - target: {fileID: 4526791939225540, guid: c23a5db78ca1a5b4f921e0109f33128c, type: 3}
      propertyPath: m_LocalPosition.y
      value: 3.0712392
      objectReference: {fileID: 0}
    - target: {fileID: 4526791939225540, guid: c23a5db78ca1a5b4f921e0109f33128c, type: 3}
      propertyPath: m_LocalPosition.z
      value: -3.7474499
      objectReference: {fileID: 0}
    - target: {fileID: 4526791939225540, guid: c23a5db78ca1a5b4f921e0109f33128c, type: 3}
      propertyPath: m_LocalRotation.x
      value: -0.7071068
      objectReference: {fileID: 0}
    - target: {fileID: 4526791939225540, guid: c23a5db78ca1a5b4f921e0109f33128c, type: 3}
      propertyPath: m_LocalRotation.y
      value: -0
      objectReference: {fileID: 0}
    - target: {fileID: 4526791939225540, guid: c23a5db78ca1a5b4f921e0109f33128c, type: 3}
      propertyPath: m_LocalRotation.z
      value: -0
      objectReference: {fileID: 0}
    - target: {fileID: 4526791939225540, guid: c23a5db78ca1a5b4f921e0109f33128c, type: 3}
      propertyPath: m_LocalRotation.w
      value: 0.7071068
      objectReference: {fileID: 0}
    - target: {fileID: 4526791939225540, guid: c23a5db78ca1a5b4f921e0109f33128c, type: 3}
      propertyPath: m_RootOrder
      value: 4
      objectReference: {fileID: 0}
    - target: {fileID: 4526791939225540, guid: c23a5db78ca1a5b4f921e0109f33128c, type: 3}
      propertyPath: m_LocalScale.y
      value: 2
      objectReference: {fileID: 0}
    - target: {fileID: 4526791939225540, guid: c23a5db78ca1a5b4f921e0109f33128c, type: 3}
      propertyPath: m_LocalScale.z
      value: 2
      objectReference: {fileID: 0}
    m_RemovedComponents: []
  m_SourcePrefab: {fileID: 100100000, guid: c23a5db78ca1a5b4f921e0109f33128c, type: 3}
--- !u!4 &1534577184 stripped
Transform:
  m_CorrespondingSourceObject: {fileID: 4526791939225540, guid: c23a5db78ca1a5b4f921e0109f33128c,
    type: 3}
  m_PrefabInstance: {fileID: 1534577183}
  m_PrefabAsset: {fileID: 0}
--- !u!1001 &1768519240
PrefabInstance:
  m_ObjectHideFlags: 0
  serializedVersion: 2
  m_Modification:
    m_TransformParent: {fileID: 190659020}
    m_Modifications:
    - target: {fileID: 1435467742513656, guid: 9b6eba5dea9e77a4abd8f45df1ffffb6, type: 3}
      propertyPath: m_Name
      value: LowPoly - Grass A (1)
      objectReference: {fileID: 0}
    - target: {fileID: 1435467742513656, guid: 9b6eba5dea9e77a4abd8f45df1ffffb6, type: 3}
      propertyPath: m_StaticEditorFlags
      value: 4294967295
      objectReference: {fileID: 0}
    - target: {fileID: 4945391837379990, guid: 9b6eba5dea9e77a4abd8f45df1ffffb6, type: 3}
      propertyPath: m_LocalPosition.x
      value: -2.9290283
      objectReference: {fileID: 0}
    - target: {fileID: 4945391837379990, guid: 9b6eba5dea9e77a4abd8f45df1ffffb6, type: 3}
      propertyPath: m_LocalPosition.y
      value: 2.989862
      objectReference: {fileID: 0}
    - target: {fileID: 4945391837379990, guid: 9b6eba5dea9e77a4abd8f45df1ffffb6, type: 3}
      propertyPath: m_LocalPosition.z
      value: -4.795927
      objectReference: {fileID: 0}
    - target: {fileID: 4945391837379990, guid: 9b6eba5dea9e77a4abd8f45df1ffffb6, type: 3}
      propertyPath: m_LocalRotation.x
      value: -0.7071068
      objectReference: {fileID: 0}
    - target: {fileID: 4945391837379990, guid: 9b6eba5dea9e77a4abd8f45df1ffffb6, type: 3}
      propertyPath: m_LocalRotation.y
      value: -0
      objectReference: {fileID: 0}
    - target: {fileID: 4945391837379990, guid: 9b6eba5dea9e77a4abd8f45df1ffffb6, type: 3}
      propertyPath: m_LocalRotation.z
      value: -0
      objectReference: {fileID: 0}
    - target: {fileID: 4945391837379990, guid: 9b6eba5dea9e77a4abd8f45df1ffffb6, type: 3}
      propertyPath: m_LocalRotation.w
      value: 0.7071068
      objectReference: {fileID: 0}
    - target: {fileID: 4945391837379990, guid: 9b6eba5dea9e77a4abd8f45df1ffffb6, type: 3}
      propertyPath: m_RootOrder
      value: 5
      objectReference: {fileID: 0}
    - target: {fileID: 4945391837379990, guid: 9b6eba5dea9e77a4abd8f45df1ffffb6, type: 3}
      propertyPath: m_LocalScale.y
      value: 2
      objectReference: {fileID: 0}
    - target: {fileID: 4945391837379990, guid: 9b6eba5dea9e77a4abd8f45df1ffffb6, type: 3}
      propertyPath: m_LocalScale.z
      value: 2
      objectReference: {fileID: 0}
    m_RemovedComponents: []
  m_SourcePrefab: {fileID: 100100000, guid: 9b6eba5dea9e77a4abd8f45df1ffffb6, type: 3}
--- !u!4 &1768519241 stripped
Transform:
  m_CorrespondingSourceObject: {fileID: 4945391837379990, guid: 9b6eba5dea9e77a4abd8f45df1ffffb6,
    type: 3}
  m_PrefabInstance: {fileID: 1768519240}
  m_PrefabAsset: {fileID: 0}
--- !u!1001 &1849434205
PrefabInstance:
  m_ObjectHideFlags: 0
  serializedVersion: 2
  m_Modification:
    m_TransformParent: {fileID: 190659020}
    m_Modifications:
    - target: {fileID: 1927372005322154, guid: 39de80c7e7a1a2942820576875608e5d, type: 3}
      propertyPath: m_StaticEditorFlags
      value: 4294967295
      objectReference: {fileID: 0}
    - target: {fileID: 4838067341564878, guid: 39de80c7e7a1a2942820576875608e5d, type: 3}
      propertyPath: m_LocalPosition.x
      value: -8.194936
      objectReference: {fileID: 0}
    - target: {fileID: 4838067341564878, guid: 39de80c7e7a1a2942820576875608e5d, type: 3}
      propertyPath: m_LocalPosition.y
      value: 2.402077
      objectReference: {fileID: 0}
    - target: {fileID: 4838067341564878, guid: 39de80c7e7a1a2942820576875608e5d, type: 3}
      propertyPath: m_LocalPosition.z
      value: 12.280445
      objectReference: {fileID: 0}
    - target: {fileID: 4838067341564878, guid: 39de80c7e7a1a2942820576875608e5d, type: 3}
      propertyPath: m_LocalRotation.x
      value: -0.7071068
      objectReference: {fileID: 0}
    - target: {fileID: 4838067341564878, guid: 39de80c7e7a1a2942820576875608e5d, type: 3}
      propertyPath: m_LocalRotation.y
      value: -0
      objectReference: {fileID: 0}
    - target: {fileID: 4838067341564878, guid: 39de80c7e7a1a2942820576875608e5d, type: 3}
      propertyPath: m_LocalRotation.z
      value: -0
      objectReference: {fileID: 0}
    - target: {fileID: 4838067341564878, guid: 39de80c7e7a1a2942820576875608e5d, type: 3}
      propertyPath: m_LocalRotation.w
      value: 0.7071068
      objectReference: {fileID: 0}
    - target: {fileID: 4838067341564878, guid: 39de80c7e7a1a2942820576875608e5d, type: 3}
      propertyPath: m_RootOrder
      value: 11
      objectReference: {fileID: 0}
    - target: {fileID: 4838067341564878, guid: 39de80c7e7a1a2942820576875608e5d, type: 3}
      propertyPath: m_LocalScale.y
      value: 1
      objectReference: {fileID: 0}
    - target: {fileID: 4838067341564878, guid: 39de80c7e7a1a2942820576875608e5d, type: 3}
      propertyPath: m_LocalScale.z
      value: 1
      objectReference: {fileID: 0}
    m_RemovedComponents: []
  m_SourcePrefab: {fileID: 100100000, guid: 39de80c7e7a1a2942820576875608e5d, type: 3}
--- !u!4 &1849434206 stripped
Transform:
  m_CorrespondingSourceObject: {fileID: 4838067341564878, guid: 39de80c7e7a1a2942820576875608e5d,
    type: 3}
  m_PrefabInstance: {fileID: 1849434205}
  m_PrefabAsset: {fileID: 0}
--- !u!1001 &2038063332
PrefabInstance:
  m_ObjectHideFlags: 0
  serializedVersion: 2
  m_Modification:
    m_TransformParent: {fileID: 190659020}
    m_Modifications:
    - target: {fileID: 1069289201138886, guid: 6b444276162548b4e9107350b71e775a, type: 3}
      propertyPath: m_Name
      value: LowPoly - FirTree A (4)
      objectReference: {fileID: 0}
    - target: {fileID: 1069289201138886, guid: 6b444276162548b4e9107350b71e775a, type: 3}
      propertyPath: m_StaticEditorFlags
      value: 4294967295
      objectReference: {fileID: 0}
    - target: {fileID: 4775219554002278, guid: 6b444276162548b4e9107350b71e775a, type: 3}
      propertyPath: m_LocalPosition.x
      value: 6.6548376
      objectReference: {fileID: 0}
    - target: {fileID: 4775219554002278, guid: 6b444276162548b4e9107350b71e775a, type: 3}
      propertyPath: m_LocalPosition.y
      value: 3.0120769
      objectReference: {fileID: 0}
    - target: {fileID: 4775219554002278, guid: 6b444276162548b4e9107350b71e775a, type: 3}
      propertyPath: m_LocalPosition.z
      value: -8.034282
      objectReference: {fileID: 0}
    - target: {fileID: 4775219554002278, guid: 6b444276162548b4e9107350b71e775a, type: 3}
      propertyPath: m_LocalRotation.x
      value: -0.7071068
      objectReference: {fileID: 0}
    - target: {fileID: 4775219554002278, guid: 6b444276162548b4e9107350b71e775a, type: 3}
      propertyPath: m_LocalRotation.y
      value: -0
      objectReference: {fileID: 0}
    - target: {fileID: 4775219554002278, guid: 6b444276162548b4e9107350b71e775a, type: 3}
      propertyPath: m_LocalRotation.z
      value: -0
      objectReference: {fileID: 0}
    - target: {fileID: 4775219554002278, guid: 6b444276162548b4e9107350b71e775a, type: 3}
      propertyPath: m_LocalRotation.w
      value: 0.7071068
      objectReference: {fileID: 0}
    - target: {fileID: 4775219554002278, guid: 6b444276162548b4e9107350b71e775a, type: 3}
      propertyPath: m_RootOrder
      value: 13
      objectReference: {fileID: 0}
    - target: {fileID: 4775219554002278, guid: 6b444276162548b4e9107350b71e775a, type: 3}
      propertyPath: m_LocalScale.x
      value: 1.1957207
      objectReference: {fileID: 0}
    - target: {fileID: 4775219554002278, guid: 6b444276162548b4e9107350b71e775a, type: 3}
      propertyPath: m_LocalScale.y
      value: 1.2511766
      objectReference: {fileID: 0}
    - target: {fileID: 4775219554002278, guid: 6b444276162548b4e9107350b71e775a, type: 3}
      propertyPath: m_LocalScale.z
      value: 1.3377925
      objectReference: {fileID: 0}
    m_RemovedComponents: []
  m_SourcePrefab: {fileID: 100100000, guid: 6b444276162548b4e9107350b71e775a, type: 3}
--- !u!4 &2038063333 stripped
Transform:
  m_CorrespondingSourceObject: {fileID: 4775219554002278, guid: 6b444276162548b4e9107350b71e775a,
    type: 3}
  m_PrefabInstance: {fileID: 2038063332}
  m_PrefabAsset: {fileID: 0}
